{
	"nodes": [
		"Module",
		"FunctionDef",
		"arguments",
		"arg",
		"FunctionDef",
		"arguments",
		"arg",
		"arg",
		"Assign",
		"Tuple",
		"Subscript",
		"Name",
		"Index",
		"Name",
		"Subscript",
		"Name",
		"Index",
		"Name",
		"Tuple",
		"Subscript",
		"Name",
		"Index",
		"Name",
		"Subscript",
		"Name",
		"Index",
		"Name",
		"Assign",
		"Name",
		"NameConstant",
		"While",
		"Name",
		"Assign",
		"Name",
		"NameConstant",
		"For",
		"Name",
		"Call",
		"Name",
		"Num",
		"Call",
		"Name",
		"Name",
		"If",
		"Compare",
		"Subscript",
		"Name",
		"Index",
		"BinOp",
		"Name",
		"Sub",
		"Num",
		"Gt",
		"Subscript",
		"Name",
		"Index",
		"Name",
		"Then",
		"Expr",
		"Call",
		"Name",
		"BinOp",
		"Name",
		"Sub",
		"Num",
		"Name",
		"Assign",
		"Name",
		"NameConstant",
		"Else",
		"Return",
		"Name",
		"Expr",
		"Call",
		"Name",
		"Call",
		"Name",
		"List",
		"Num",
		"Num",
		"Num",
		"Num"
	],
	"adj": [
		[
			1,
			72
		],
		[
			2,
			4,
			27,
			30,
			70
		],
		[
			3
		],
		[],
		[
			5,
			8
		],
		[
			6,
			7
		],
		[],
		[],
		[
			9,
			18
		],
		[
			10,
			14
		],
		[
			11,
			12
		],
		[],
		[
			13
		],
		[],
		[
			15,
			16
		],
		[],
		[
			17
		],
		[],
		[
			19,
			23
		],
		[
			20,
			21
		],
		[],
		[
			22
		],
		[],
		[
			24,
			25
		],
		[],
		[
			26
		],
		[],
		[
			28,
			29
		],
		[],
		[],
		[
			31,
			32,
			35
		],
		[],
		[
			33,
			34
		],
		[],
		[],
		[
			36,
			37,
			43
		],
		[],
		[
			38,
			39,
			40
		],
		[],
		[],
		[
			41,
			42
		],
		[],
		[],
		[
			44,
			57,
			69
		],
		[
			45,
			52,
			53
		],
		[
			46,
			47
		],
		[],
		[
			48
		],
		[
			49,
			50,
			51
		],
		[],
		[],
		[],
		[],
		[
			54,
			55
		],
		[],
		[
			56
		],
		[],
		[
			58,
			66
		],
		[
			59
		],
		[
			60,
			61,
			65
		],
		[],
		[
			62,
			63,
			64
		],
		[],
		[],
		[],
		[],
		[
			67,
			68
		],
		[],
		[],
		[],
		[
			71
		],
		[],
		[
			73
		],
		[
			74,
			75
		],
		[],
		[
			76,
			77
		],
		[],
		[
			78,
			79,
			80,
			81
		],
		[],
		[],
		[],
		[]
	]
}