{
	"nodes": [
		"Module",
		"FunctionDef",
		"arguments",
		"arg",
		"arg",
		"arg",
		"Assign",
		"Name",
		"Subscript",
		"Name",
		"Index",
		"Name",
		"Assign",
		"Subscript",
		"Name",
		"Index",
		"Name",
		"Subscript",
		"Name",
		"Index",
		"Name",
		"Assign",
		"Subscript",
		"Name",
		"Index",
		"Name",
		"Name",
		"FunctionDef",
		"arguments",
		"arg",
		"Assign",
		"Name",
		"NameConstant",
		"While",
		"Name",
		"Assign",
		"Name",
		"NameConstant",
		"For",
		"Name",
		"Call",
		"Name",
		"Num",
		"Call",
		"Name",
		"Name",
		"If",
		"Compare",
		"Subscript",
		"Name",
		"Index",
		"BinOp",
		"Name",
		"Sub",
		"Num",
		"Gt",
		"Subscript",
		"Name",
		"Index",
		"Name",
		"Then",
		"Expr",
		"Call",
		"Name",
		"Name",
		"BinOp",
		"Name",
		"Sub",
		"Num",
		"Name",
		"Assign",
		"Name",
		"NameConstant",
		"Else",
		"Return",
		"Name"
	],
	"adj": [
		[
			1,
			27
		],
		[
			2,
			6,
			12,
			21
		],
		[
			3,
			4,
			5
		],
		[],
		[],
		[],
		[
			7,
			8
		],
		[],
		[
			9,
			10
		],
		[],
		[
			11
		],
		[],
		[
			13,
			17
		],
		[
			14,
			15
		],
		[],
		[
			16
		],
		[],
		[
			18,
			19
		],
		[],
		[
			20
		],
		[],
		[
			22,
			26
		],
		[
			23,
			24
		],
		[],
		[
			25
		],
		[],
		[],
		[
			28,
			30,
			33,
			74
		],
		[
			29
		],
		[],
		[
			31,
			32
		],
		[],
		[],
		[
			34,
			35,
			38
		],
		[],
		[
			36,
			37
		],
		[],
		[],
		[
			39,
			40,
			46
		],
		[],
		[
			41,
			42,
			43
		],
		[],
		[],
		[
			44,
			45
		],
		[],
		[],
		[
			47,
			60,
			73
		],
		[
			48,
			55,
			56
		],
		[
			49,
			50
		],
		[],
		[
			51
		],
		[
			52,
			53,
			54
		],
		[],
		[],
		[],
		[],
		[
			57,
			58
		],
		[],
		[
			59
		],
		[],
		[
			61,
			70
		],
		[
			62
		],
		[
			63,
			64,
			65,
			69
		],
		[],
		[],
		[
			66,
			67,
			68
		],
		[],
		[],
		[],
		[],
		[
			71,
			72
		],
		[],
		[],
		[],
		[
			75
		],
		[]
	]
}