{
	"nodes": [
		"Module",
		"FunctionDef",
		"arguments",
		"arg",
		"For",
		"Name",
		"Call",
		"Name",
		"BinOp",
		"Call",
		"Name",
		"Name",
		"Sub",
		"Num",
		"Num",
		"UnaryOp",
		"USub",
		"Num",
		"For",
		"Name",
		"Call",
		"Name",
		"Name",
		"If",
		"Compare",
		"Subscript",
		"Name",
		"Index",
		"Name",
		"Gt",
		"Subscript",
		"Name",
		"Index",
		"BinOp",
		"Name",
		"Add",
		"Num",
		"Then",
		"Assign",
		"Name",
		"Subscript",
		"Name",
		"Index",
		"Name",
		"Assign",
		"Subscript",
		"Name",
		"Index",
		"Name",
		"Subscript",
		"Name",
		"Index",
		"BinOp",
		"Name",
		"Add",
		"Num",
		"Assign",
		"Subscript",
		"Name",
		"Index",
		"BinOp",
		"Name",
		"Add",
		"Num",
		"Name",
		"Else",
		"Return",
		"Name"
	],
	"adj": [
		[
			1
		],
		[
			2,
			4,
			66
		],
		[
			3
		],
		[],
		[
			5,
			6,
			18
		],
		[],
		[
			7,
			8,
			14,
			15
		],
		[],
		[
			9,
			12,
			13
		],
		[
			10,
			11
		],
		[],
		[],
		[],
		[],
		[],
		[
			16,
			17
		],
		[],
		[],
		[
			19,
			20,
			23
		],
		[],
		[
			21,
			22
		],
		[],
		[],
		[
			24,
			37,
			65
		],
		[
			25,
			29,
			30
		],
		[
			26,
			27
		],
		[],
		[
			28
		],
		[],
		[],
		[
			31,
			32
		],
		[],
		[
			33
		],
		[
			34,
			35,
			36
		],
		[],
		[],
		[],
		[
			38,
			44,
			56
		],
		[
			39,
			40
		],
		[],
		[
			41,
			42
		],
		[],
		[
			43
		],
		[],
		[
			45,
			49
		],
		[
			46,
			47
		],
		[],
		[
			48
		],
		[],
		[
			50,
			51
		],
		[],
		[
			52
		],
		[
			53,
			54,
			55
		],
		[],
		[],
		[],
		[
			57,
			64
		],
		[
			58,
			59
		],
		[],
		[
			60
		],
		[
			61,
			62,
			63
		],
		[],
		[],
		[],
		[],
		[],
		[
			67
		],
		[]
	]
}