{
	"nodes": [
		"Module",
		"FunctionDef",
		"arguments",
		"arg",
		"For",
		"Name",
		"Call",
		"Name",
		"Call",
		"Name",
		"Name",
		"Assign",
		"Name",
		"BinOp",
		"Name",
		"Sub",
		"Num",
		"If",
		"Compare",
		"Subscript",
		"Name",
		"Index",
		"Name",
		"Gt",
		"Subscript",
		"Name",
		"Index",
		"BinOp",
		"Name",
		"Add",
		"Num",
		"Then",
		"Assign",
		"Subscript",
		"Name",
		"Index",
		"Name",
		"Subscript",
		"Name",
		"Index",
		"BinOp",
		"Name",
		"Add",
		"Num",
		"Assign",
		"Subscript",
		"Name",
		"Index",
		"BinOp",
		"Name",
		"Add",
		"Num",
		"Subscript",
		"Name",
		"Index",
		"Name",
		"Else",
		"Return",
		"Name",
		"Expr",
		"Call",
		"Name",
		"Call",
		"Name",
		"List",
		"Num",
		"Num",
		"Num",
		"Num"
	],
	"adj": [
		[
			1,
			59
		],
		[
			2,
			4,
			57
		],
		[
			3
		],
		[],
		[
			5,
			6,
			11,
			17
		],
		[],
		[
			7,
			8
		],
		[],
		[
			9,
			10
		],
		[],
		[],
		[
			12,
			13
		],
		[],
		[
			14,
			15,
			16
		],
		[],
		[],
		[],
		[
			18,
			31,
			56
		],
		[
			19,
			23,
			24
		],
		[
			20,
			21
		],
		[],
		[
			22
		],
		[],
		[],
		[
			25,
			26
		],
		[],
		[
			27
		],
		[
			28,
			29,
			30
		],
		[],
		[],
		[],
		[
			32,
			44
		],
		[
			33,
			37
		],
		[
			34,
			35
		],
		[],
		[
			36
		],
		[],
		[
			38,
			39
		],
		[],
		[
			40
		],
		[
			41,
			42,
			43
		],
		[],
		[],
		[],
		[
			45,
			52
		],
		[
			46,
			47
		],
		[],
		[
			48
		],
		[
			49,
			50,
			51
		],
		[],
		[],
		[],
		[
			53,
			54
		],
		[],
		[
			55
		],
		[],
		[],
		[
			58
		],
		[],
		[
			60
		],
		[
			61,
			62
		],
		[],
		[
			63,
			64
		],
		[],
		[
			65,
			66,
			67,
			68
		],
		[],
		[],
		[],
		[]
	]
}