{
	"nodes": [
		"Module",
		"FunctionDef",
		"arguments",
		"arg",
		"Assign",
		"Name",
		"Call",
		"Name",
		"Name",
		"For",
		"Name",
		"Call",
		"Name",
		"BinOp",
		"Name",
		"Sub",
		"Num",
		"For",
		"Name",
		"Call",
		"Name",
		"BinOp",
		"BinOp",
		"Name",
		"Sub",
		"Name",
		"Sub",
		"Num",
		"If",
		"Compare",
		"Subscript",
		"Name",
		"Index",
		"Name",
		"Gt",
		"Subscript",
		"Name",
		"Index",
		"BinOp",
		"Name",
		"Add",
		"Num",
		"Then",
		"Assign",
		"Name",
		"Subscript",
		"Name",
		"Index",
		"Name",
		"Assign",
		"Subscript",
		"Name",
		"Index",
		"Name",
		"Subscript",
		"Name",
		"Index",
		"BinOp",
		"Name",
		"Add",
		"Num",
		"Assign",
		"Subscript",
		"Name",
		"Index",
		"BinOp",
		"Name",
		"Add",
		"Num",
		"Name",
		"Else",
		"Return",
		"Name",
		"Expr",
		"Call",
		"Name",
		"Call",
		"Name",
		"List",
		"Num",
		"Num",
		"Num",
		"Num"
	],
	"adj": [
		[
			1,
			73
		],
		[
			2,
			4,
			9,
			71
		],
		[
			3
		],
		[],
		[
			5,
			6
		],
		[],
		[
			7,
			8
		],
		[],
		[],
		[
			10,
			11,
			17
		],
		[],
		[
			12,
			13
		],
		[],
		[
			14,
			15,
			16
		],
		[],
		[],
		[],
		[
			18,
			19,
			28
		],
		[],
		[
			20,
			21
		],
		[],
		[
			22,
			26,
			27
		],
		[
			23,
			24,
			25
		],
		[],
		[],
		[],
		[],
		[],
		[
			29,
			42,
			70
		],
		[
			30,
			34,
			35
		],
		[
			31,
			32
		],
		[],
		[
			33
		],
		[],
		[],
		[
			36,
			37
		],
		[],
		[
			38
		],
		[
			39,
			40,
			41
		],
		[],
		[],
		[],
		[
			43,
			49,
			61
		],
		[
			44,
			45
		],
		[],
		[
			46,
			47
		],
		[],
		[
			48
		],
		[],
		[
			50,
			54
		],
		[
			51,
			52
		],
		[],
		[
			53
		],
		[],
		[
			55,
			56
		],
		[],
		[
			57
		],
		[
			58,
			59,
			60
		],
		[],
		[],
		[],
		[
			62,
			69
		],
		[
			63,
			64
		],
		[],
		[
			65
		],
		[
			66,
			67,
			68
		],
		[],
		[],
		[],
		[],
		[],
		[
			72
		],
		[],
		[
			74
		],
		[
			75,
			76
		],
		[],
		[
			77,
			78
		],
		[],
		[
			79,
			80,
			81,
			82
		],
		[],
		[],
		[],
		[]
	]
}