{
	"nodes": [
		"Module",
		"FunctionDef",
		"arguments",
		"arg",
		"For",
		"Name",
		"Call",
		"Name",
		"BinOp",
		"Call",
		"Name",
		"Name",
		"Sub",
		"Num",
		"If",
		"Compare",
		"Subscript",
		"Name",
		"Index",
		"Name",
		"Gt",
		"Subscript",
		"Name",
		"Index",
		"BinOp",
		"Name",
		"Add",
		"Num",
		"Then",
		"Assign",
		"Name",
		"Subscript",
		"Name",
		"Index",
		"Name",
		"Assign",
		"Subscript",
		"Name",
		"Index",
		"Name",
		"Subscript",
		"Name",
		"Index",
		"BinOp",
		"Name",
		"Add",
		"Num",
		"Assign",
		"Subscript",
		"Name",
		"Index",
		"BinOp",
		"Name",
		"Add",
		"Num",
		"Name",
		"Else",
		"Return",
		"Name",
		"Expr",
		"Call",
		"Name",
		"Call",
		"Name",
		"List",
		"Num",
		"Num",
		"Num",
		"Num"
	],
	"adj": [
		[
			1,
			59
		],
		[
			2,
			4,
			57
		],
		[
			3
		],
		[],
		[
			5,
			6,
			14
		],
		[],
		[
			7,
			8
		],
		[],
		[
			9,
			12,
			13
		],
		[
			10,
			11
		],
		[],
		[],
		[],
		[],
		[
			15,
			28,
			56
		],
		[
			16,
			20,
			21
		],
		[
			17,
			18
		],
		[],
		[
			19
		],
		[],
		[],
		[
			22,
			23
		],
		[],
		[
			24
		],
		[
			25,
			26,
			27
		],
		[],
		[],
		[],
		[
			29,
			35,
			47
		],
		[
			30,
			31
		],
		[],
		[
			32,
			33
		],
		[],
		[
			34
		],
		[],
		[
			36,
			40
		],
		[
			37,
			38
		],
		[],
		[
			39
		],
		[],
		[
			41,
			42
		],
		[],
		[
			43
		],
		[
			44,
			45,
			46
		],
		[],
		[],
		[],
		[
			48,
			55
		],
		[
			49,
			50
		],
		[],
		[
			51
		],
		[
			52,
			53,
			54
		],
		[],
		[],
		[],
		[],
		[],
		[
			58
		],
		[],
		[
			60
		],
		[
			61,
			62
		],
		[],
		[
			63,
			64
		],
		[],
		[
			65,
			66,
			67,
			68
		],
		[],
		[],
		[],
		[]
	]
}