{
	"nodes": [
		"Module",
		"FunctionDef",
		"arguments",
		"arg",
		"While",
		"Name",
		"Assign",
		"Name",
		"Call",
		"Name",
		"Name",
		"For",
		"Name",
		"Call",
		"Name",
		"BinOp",
		"Name",
		"Sub",
		"Num",
		"Assign",
		"Tuple",
		"Subscript",
		"Name",
		"Index",
		"Name",
		"Subscript",
		"Name",
		"Index",
		"BinOp",
		"Name",
		"Add",
		"Num",
		"Tuple",
		"Subscript",
		"Name",
		"Index",
		"BinOp",
		"Name",
		"Add",
		"Num",
		"Subscript",
		"Name",
		"Index",
		"Name",
		"If",
		"Compare",
		"Name",
		"GtE",
		"BinOp",
		"Name",
		"Sub",
		"Num",
		"Then",
		"Break",
		"Else",
		"Return",
		"Name",
		"Expr",
		"Call",
		"Name",
		"Call",
		"Name",
		"List",
		"Num",
		"Num",
		"Num",
		"Num"
	],
	"adj": [
		[
			1,
			57
		],
		[
			2,
			4,
			55
		],
		[
			3
		],
		[],
		[
			5,
			6,
			11,
			44
		],
		[],
		[
			7,
			8
		],
		[],
		[
			9,
			10
		],
		[],
		[],
		[
			12,
			13,
			19
		],
		[],
		[
			14,
			15
		],
		[],
		[
			16,
			17,
			18
		],
		[],
		[],
		[],
		[
			20,
			32
		],
		[
			21,
			25
		],
		[
			22,
			23
		],
		[],
		[
			24
		],
		[],
		[
			26,
			27
		],
		[],
		[
			28
		],
		[
			29,
			30,
			31
		],
		[],
		[],
		[],
		[
			33,
			40
		],
		[
			34,
			35
		],
		[],
		[
			36
		],
		[
			37,
			38,
			39
		],
		[],
		[],
		[],
		[
			41,
			42
		],
		[],
		[
			43
		],
		[],
		[
			45,
			52,
			54
		],
		[
			46,
			47,
			48
		],
		[],
		[],
		[
			49,
			50,
			51
		],
		[],
		[],
		[],
		[
			53
		],
		[],
		[],
		[
			56
		],
		[],
		[
			58
		],
		[
			59,
			60
		],
		[],
		[
			61,
			62
		],
		[],
		[
			63,
			64,
			65,
			66
		],
		[],
		[],
		[],
		[]
	]
}