{
	"nodes": [
		"Module",
		"FunctionDef",
		"arguments",
		"arg",
		"arg",
		"arg",
		"Assign",
		"Subscript",
		"Name",
		"Index",
		"Name",
		"Subscript",
		"Name",
		"Index",
		"Name",
		"Assign",
		"Subscript",
		"Name",
		"Index",
		"Name",
		"Subscript",
		"Name",
		"Index",
		"Name",
		"FunctionDef",
		"arguments",
		"arg",
		"For",
		"Name",
		"Call",
		"Name",
		"Call",
		"Name",
		"Name",
		"Pass",
		"Return",
		"Name",
		"Expr",
		"Call",
		"Name",
		"Call",
		"Name",
		"List",
		"Num",
		"Num",
		"Num",
		"Num"
	],
	"adj": [
		[
			1,
			24,
			37
		],
		[
			2,
			6,
			15
		],
		[
			3,
			4,
			5
		],
		[],
		[],
		[],
		[
			7,
			11
		],
		[
			8,
			9
		],
		[],
		[
			10
		],
		[],
		[
			12,
			13
		],
		[],
		[
			14
		],
		[],
		[
			16,
			20
		],
		[
			17,
			18
		],
		[],
		[
			19
		],
		[],
		[
			21,
			22
		],
		[],
		[
			23
		],
		[],
		[
			25,
			27,
			35
		],
		[
			26
		],
		[],
		[
			28,
			29,
			34
		],
		[],
		[
			30,
			31
		],
		[],
		[
			32,
			33
		],
		[],
		[],
		[],
		[
			36
		],
		[],
		[
			38
		],
		[
			39,
			40
		],
		[],
		[
			41,
			42
		],
		[],
		[
			43,
			44,
			45,
			46
		],
		[],
		[],
		[],
		[]
	]
}