{
	"nodes": [
		"Module",
		"FunctionDef",
		"arguments",
		"arg",
		"arg",
		"arg",
		"Assign",
		"Subscript",
		"Name",
		"Index",
		"Name",
		"Subscript",
		"Name",
		"Index",
		"Name",
		"Assign",
		"Subscript",
		"Name",
		"Index",
		"Name",
		"Subscript",
		"Name",
		"Index",
		"Name",
		"FunctionDef",
		"arguments",
		"arg",
		"For",
		"Name",
		"Call",
		"Name",
		"Num",
		"Call",
		"Name",
		"Name",
		"If",
		"Compare",
		"Subscript",
		"Name",
		"Index",
		"BinOp",
		"Name",
		"Sub",
		"Num",
		"Gt",
		"Subscript",
		"Name",
		"Index",
		"Name",
		"Then",
		"Expr",
		"Call",
		"Name",
		"Name",
		"BinOp",
		"Name",
		"Sub",
		"Num",
		"Name",
		"Else",
		"Return",
		"Name",
		"Expr",
		"Call",
		"Name",
		"Call",
		"Name",
		"List",
		"Num",
		"Num",
		"Num",
		"Num"
	],
	"adj": [
		[
			1,
			24,
			62
		],
		[
			2,
			6,
			15
		],
		[
			3,
			4,
			5
		],
		[],
		[],
		[],
		[
			7,
			11
		],
		[
			8,
			9
		],
		[],
		[
			10
		],
		[],
		[
			12,
			13
		],
		[],
		[
			14
		],
		[],
		[
			16,
			20
		],
		[
			17,
			18
		],
		[],
		[
			19
		],
		[],
		[
			21,
			22
		],
		[],
		[
			23
		],
		[],
		[
			25,
			27,
			60
		],
		[
			26
		],
		[],
		[
			28,
			29,
			35
		],
		[],
		[
			30,
			31,
			32
		],
		[],
		[],
		[
			33,
			34
		],
		[],
		[],
		[
			36,
			49,
			59
		],
		[
			37,
			44,
			45
		],
		[
			38,
			39
		],
		[],
		[
			40
		],
		[
			41,
			42,
			43
		],
		[],
		[],
		[],
		[],
		[
			46,
			47
		],
		[],
		[
			48
		],
		[],
		[
			50
		],
		[
			51
		],
		[
			52,
			53,
			54,
			58
		],
		[],
		[],
		[
			55,
			56,
			57
		],
		[],
		[],
		[],
		[],
		[],
		[
			61
		],
		[],
		[
			63
		],
		[
			64,
			65
		],
		[],
		[
			66,
			67
		],
		[],
		[
			68,
			69,
			70,
			71
		],
		[],
		[],
		[],
		[]
	]
}