{
	"nodes": [
		"Module",
		"FunctionDef",
		"arguments",
		"arg",
		"For",
		"Name",
		"Call",
		"Name",
		"Call",
		"Name",
		"Name",
		"Assign",
		"Name",
		"Subscript",
		"Name",
		"Index",
		"Name",
		"Assign",
		"Name",
		"Name",
		"If",
		"BoolOp",
		"And",
		"Compare",
		"Name",
		"Gt",
		"Num",
		"Compare",
		"Subscript",
		"Name",
		"Index",
		"Name",
		"Gt",
		"Name",
		"Then",
		"Assign",
		"Tuple",
		"Subscript",
		"Name",
		"Index",
		"Name",
		"Name",
		"Tuple",
		"Name",
		"Subscript",
		"Name",
		"Index",
		"Name",
		"Else",
		"Return",
		"Name",
		"Expr",
		"Call",
		"Name",
		"Call",
		"Name",
		"List",
		"Num",
		"Num",
		"Num",
		"Num",
		"Num"
	],
	"adj": [
		[
			1,
			51
		],
		[
			2,
			4,
			49
		],
		[
			3
		],
		[],
		[
			5,
			6,
			11,
			17,
			20
		],
		[],
		[
			7,
			8
		],
		[],
		[
			9,
			10
		],
		[],
		[],
		[
			12,
			13
		],
		[],
		[
			14,
			15
		],
		[],
		[
			16
		],
		[],
		[
			18,
			19
		],
		[],
		[],
		[
			21,
			34,
			48
		],
		[
			22,
			23,
			27
		],
		[],
		[
			24,
			25,
			26
		],
		[],
		[],
		[],
		[
			28,
			32,
			33
		],
		[
			29,
			30
		],
		[],
		[
			31
		],
		[],
		[],
		[],
		[
			35
		],
		[
			36,
			42
		],
		[
			37,
			41
		],
		[
			38,
			39
		],
		[],
		[
			40
		],
		[],
		[],
		[
			43,
			44
		],
		[],
		[
			45,
			46
		],
		[],
		[
			47
		],
		[],
		[],
		[
			50
		],
		[],
		[
			52
		],
		[
			53,
			54
		],
		[],
		[
			55,
			56
		],
		[],
		[
			57,
			58,
			59,
			60,
			61
		],
		[],
		[],
		[],
		[],
		[]
	]
}