{
	"nodes": [
		"Module",
		"FunctionDef",
		"arguments",
		"arg",
		"For",
		"Name",
		"Call",
		"Name",
		"Call",
		"Name",
		"Name",
		"Assign",
		"Name",
		"Subscript",
		"Name",
		"Index",
		"Name",
		"Assign",
		"Name",
		"Name",
		"While",
		"Compare",
		"Subscript",
		"Name",
		"Index",
		"BinOp",
		"Name",
		"Sub",
		"Num",
		"Gt",
		"Name",
		"Assign",
		"Subscript",
		"Name",
		"Index",
		"Name",
		"Subscript",
		"Name",
		"Index",
		"BinOp",
		"Name",
		"Sub",
		"Num",
		"Assign",
		"Subscript",
		"Name",
		"Index",
		"BinOp",
		"Name",
		"Sub",
		"Num",
		"Name",
		"Return",
		"Name",
		"Expr",
		"Call",
		"Name",
		"Call",
		"Name",
		"List",
		"Num",
		"Num",
		"Num",
		"Num",
		"Num"
	],
	"adj": [
		[
			1,
			54
		],
		[
			2,
			4,
			52
		],
		[
			3
		],
		[],
		[
			5,
			6,
			11,
			17,
			20
		],
		[],
		[
			7,
			8
		],
		[],
		[
			9,
			10
		],
		[],
		[],
		[
			12,
			13
		],
		[],
		[
			14,
			15
		],
		[],
		[
			16
		],
		[],
		[
			18,
			19
		],
		[],
		[],
		[
			21,
			31,
			43
		],
		[
			22,
			29,
			30
		],
		[
			23,
			24
		],
		[],
		[
			25
		],
		[
			26,
			27,
			28
		],
		[],
		[],
		[],
		[],
		[],
		[
			32,
			36
		],
		[
			33,
			34
		],
		[],
		[
			35
		],
		[],
		[
			37,
			38
		],
		[],
		[
			39
		],
		[
			40,
			41,
			42
		],
		[],
		[],
		[],
		[
			44,
			51
		],
		[
			45,
			46
		],
		[],
		[
			47
		],
		[
			48,
			49,
			50
		],
		[],
		[],
		[],
		[],
		[
			53
		],
		[],
		[
			55
		],
		[
			56,
			57
		],
		[],
		[
			58,
			59
		],
		[],
		[
			60,
			61,
			62,
			63,
			64
		],
		[],
		[],
		[],
		[],
		[]
	]
}