{
	"nodes": [
		"Module",
		"FunctionDef",
		"arguments",
		"arg",
		"Assign",
		"Name",
		"Call",
		"Name",
		"Name",
		"For",
		"Name",
		"Call",
		"Name",
		"Num",
		"Name",
		"Assign",
		"Name",
		"Name",
		"While",
		"BoolOp",
		"And",
		"Compare",
		"Name",
		"Gt",
		"Num",
		"Compare",
		"Subscript",
		"Name",
		"Index",
		"Name",
		"Lt",
		"Subscript",
		"Name",
		"Index",
		"BinOp",
		"Name",
		"Sub",
		"Num",
		"Assign",
		"Subscript",
		"Name",
		"Index",
		"Name",
		"Subscript",
		"Name",
		"Index",
		"BinOp",
		"Name",
		"Sub",
		"Num",
		"Assign",
		"Name",
		"BinOp",
		"Name",
		"Sub",
		"Num",
		"Assign",
		"Subscript",
		"Name",
		"Index",
		"Name",
		"Subscript",
		"Name",
		"Index",
		"Name",
		"Return",
		"Name",
		"Expr",
		"Call",
		"Name",
		"Call",
		"Name",
		"List",
		"Num",
		"Num",
		"Num",
		"Num"
	],
	"adj": [
		[
			1,
			67
		],
		[
			2,
			4,
			9,
			65
		],
		[
			3
		],
		[],
		[
			5,
			6
		],
		[],
		[
			7,
			8
		],
		[],
		[],
		[
			10,
			11,
			15,
			18,
			56
		],
		[],
		[
			12,
			13,
			14
		],
		[],
		[],
		[],
		[
			16,
			17
		],
		[],
		[],
		[
			19,
			38,
			50
		],
		[
			20,
			21,
			25
		],
		[],
		[
			22,
			23,
			24
		],
		[],
		[],
		[],
		[
			26,
			30,
			31
		],
		[
			27,
			28
		],
		[],
		[
			29
		],
		[],
		[],
		[
			32,
			33
		],
		[],
		[
			34
		],
		[
			35,
			36,
			37
		],
		[],
		[],
		[],
		[
			39,
			43
		],
		[
			40,
			41
		],
		[],
		[
			42
		],
		[],
		[
			44,
			45
		],
		[],
		[
			46
		],
		[
			47,
			48,
			49
		],
		[],
		[],
		[],
		[
			51,
			52
		],
		[],
		[
			53,
			54,
			55
		],
		[],
		[],
		[],
		[
			57,
			61
		],
		[
			58,
			59
		],
		[],
		[
			60
		],
		[],
		[
			62,
			63
		],
		[],
		[
			64
		],
		[],
		[
			66
		],
		[],
		[
			68
		],
		[
			69,
			70
		],
		[],
		[
			71,
			72
		],
		[],
		[
			73,
			74,
			75,
			76
		],
		[],
		[],
		[],
		[]
	]
}