{
	"nodes": [
		"Module",
		"FunctionDef",
		"arguments",
		"arg",
		"For",
		"Name",
		"Name",
		"Assign",
		"Name",
		"BinOp",
		"Call",
		"Name",
		"Name",
		"Sub",
		"Num",
		"While",
		"BoolOp",
		"And",
		"Compare",
		"Name",
		"Gt",
		"Num",
		"Compare",
		"Subscript",
		"Name",
		"Index",
		"BinOp",
		"Name",
		"Sub",
		"Num",
		"Gt",
		"Name",
		"Assign",
		"Subscript",
		"Name",
		"Index",
		"Name",
		"Subscript",
		"Name",
		"Index",
		"BinOp",
		"Name",
		"Sub",
		"Num",
		"AugAssign",
		"Name",
		"Sub",
		"Num",
		"Assign",
		"Subscript",
		"Name",
		"Index",
		"Name",
		"Name",
		"Return",
		"Name",
		"Expr",
		"Call",
		"Name",
		"Call",
		"Name",
		"List",
		"Num",
		"Num",
		"Num",
		"Num",
		"Num"
	],
	"adj": [
		[
			1,
			56
		],
		[
			2,
			4,
			54
		],
		[
			3
		],
		[],
		[
			5,
			6,
			7,
			15,
			48
		],
		[],
		[],
		[
			8,
			9
		],
		[],
		[
			10,
			13,
			14
		],
		[
			11,
			12
		],
		[],
		[],
		[],
		[],
		[
			16,
			32,
			44
		],
		[
			17,
			18,
			22
		],
		[],
		[
			19,
			20,
			21
		],
		[],
		[],
		[],
		[
			23,
			30,
			31
		],
		[
			24,
			25
		],
		[],
		[
			26
		],
		[
			27,
			28,
			29
		],
		[],
		[],
		[],
		[],
		[],
		[
			33,
			37
		],
		[
			34,
			35
		],
		[],
		[
			36
		],
		[],
		[
			38,
			39
		],
		[],
		[
			40
		],
		[
			41,
			42,
			43
		],
		[],
		[],
		[],
		[
			45,
			46,
			47
		],
		[],
		[],
		[],
		[
			49,
			53
		],
		[
			50,
			51
		],
		[],
		[
			52
		],
		[],
		[],
		[
			55
		],
		[],
		[
			57
		],
		[
			58,
			59
		],
		[],
		[
			60,
			61
		],
		[],
		[
			62,
			63,
			64,
			65,
			66
		],
		[],
		[],
		[],
		[],
		[]
	]
}