{
	"nodes": [
		"Module",
		"FunctionDef",
		"arguments",
		"arg",
		"For",
		"Name",
		"Name",
		"Assign",
		"Name",
		"BinOp",
		"Name",
		"Sub",
		"Num",
		"While",
		"Compare",
		"Name",
		"Gt",
		"Num",
		"If",
		"Compare",
		"Subscript",
		"Name",
		"Index",
		"Name",
		"Lt",
		"Subscript",
		"Name",
		"Index",
		"Name",
		"Then",
		"Assign",
		"Tuple",
		"Subscript",
		"Name",
		"Index",
		"Name",
		"Subscript",
		"Name",
		"Index",
		"Name",
		"Tuple",
		"Subscript",
		"Name",
		"Index",
		"Name",
		"Subscript",
		"Name",
		"Index",
		"Name",
		"Else",
		"AugAssign",
		"Name",
		"Sub",
		"Num",
		"Return",
		"Name",
		"Expr",
		"Call",
		"Name",
		"Call",
		"Name",
		"List",
		"Num",
		"Num",
		"Num",
		"Num"
	],
	"adj": [
		[
			1,
			56
		],
		[
			2,
			4,
			54
		],
		[
			3
		],
		[],
		[
			5,
			6,
			7,
			13
		],
		[],
		[],
		[
			8,
			9
		],
		[],
		[
			10,
			11,
			12
		],
		[],
		[],
		[],
		[
			14,
			18,
			50
		],
		[
			15,
			16,
			17
		],
		[],
		[],
		[],
		[
			19,
			29,
			49
		],
		[
			20,
			24,
			25
		],
		[
			21,
			22
		],
		[],
		[
			23
		],
		[],
		[],
		[
			26,
			27
		],
		[],
		[
			28
		],
		[],
		[
			30
		],
		[
			31,
			40
		],
		[
			32,
			36
		],
		[
			33,
			34
		],
		[],
		[
			35
		],
		[],
		[
			37,
			38
		],
		[],
		[
			39
		],
		[],
		[
			41,
			45
		],
		[
			42,
			43
		],
		[],
		[
			44
		],
		[],
		[
			46,
			47
		],
		[],
		[
			48
		],
		[],
		[],
		[
			51,
			52,
			53
		],
		[],
		[],
		[],
		[
			55
		],
		[],
		[
			57
		],
		[
			58,
			59
		],
		[],
		[
			60,
			61
		],
		[],
		[
			62,
			63,
			64,
			65
		],
		[],
		[],
		[],
		[]
	]
}