{
	"nodes": [
		"Module",
		"FunctionDef",
		"arguments",
		"arg",
		"For",
		"Name",
		"Call",
		"Name",
		"Num",
		"Call",
		"Name",
		"Name",
		"Assign",
		"Name",
		"Subscript",
		"Name",
		"Index",
		"Name",
		"Assign",
		"Name",
		"BinOp",
		"Name",
		"Sub",
		"Num",
		"While",
		"BoolOp",
		"And",
		"Compare",
		"Name",
		"GtE",
		"Num",
		"Compare",
		"Name",
		"Lt",
		"Subscript",
		"Name",
		"Index",
		"Name",
		"Assign",
		"Subscript",
		"Name",
		"Index",
		"BinOp",
		"Name",
		"Add",
		"Num",
		"Subscript",
		"Name",
		"Index",
		"Name",
		"AugAssign",
		"Name",
		"Sub",
		"Num",
		"Assign",
		"Subscript",
		"Name",
		"Index",
		"BinOp",
		"Name",
		"Add",
		"Num",
		"Name",
		"Return",
		"Name"
	],
	"adj": [
		[
			1
		],
		[
			2,
			4,
			63
		],
		[
			3
		],
		[],
		[
			5,
			6,
			12,
			18,
			24,
			54
		],
		[],
		[
			7,
			8,
			9
		],
		[],
		[],
		[
			10,
			11
		],
		[],
		[],
		[
			13,
			14
		],
		[],
		[
			15,
			16
		],
		[],
		[
			17
		],
		[],
		[
			19,
			20
		],
		[],
		[
			21,
			22,
			23
		],
		[],
		[],
		[],
		[
			25,
			38,
			50
		],
		[
			26,
			27,
			31
		],
		[],
		[
			28,
			29,
			30
		],
		[],
		[],
		[],
		[
			32,
			33,
			34
		],
		[],
		[],
		[
			35,
			36
		],
		[],
		[
			37
		],
		[],
		[
			39,
			46
		],
		[
			40,
			41
		],
		[],
		[
			42
		],
		[
			43,
			44,
			45
		],
		[],
		[],
		[],
		[
			47,
			48
		],
		[],
		[
			49
		],
		[],
		[
			51,
			52,
			53
		],
		[],
		[],
		[],
		[
			55,
			62
		],
		[
			56,
			57
		],
		[],
		[
			58
		],
		[
			59,
			60,
			61
		],
		[],
		[],
		[],
		[],
		[
			64
		],
		[]
	]
}