{
	"nodes": [
		"Module",
		"FunctionDef",
		"arguments",
		"arg",
		"Assign",
		"Name",
		"BinOp",
		"Call",
		"Name",
		"Name",
		"Sub",
		"Num",
		"While",
		"BoolOp",
		"And",
		"Compare",
		"Name",
		"GtE",
		"Num",
		"Compare",
		"Subscript",
		"Name",
		"Index",
		"BinOp",
		"Name",
		"Add",
		"Num",
		"Lt",
		"Subscript",
		"Name",
		"Index",
		"Name",
		"Assign",
		"Subscript",
		"Name",
		"Index",
		"BinOp",
		"Name",
		"Add",
		"Num",
		"Subscript",
		"Name",
		"Index",
		"Name",
		"AugAssign",
		"Name",
		"Sub",
		"Num",
		"Return",
		"Name",
		"Expr",
		"Call",
		"Name",
		"Call",
		"Name",
		"List",
		"Num",
		"Num",
		"Num",
		"Num"
	],
	"adj": [
		[
			1,
			50
		],
		[
			2,
			4,
			12,
			48
		],
		[
			3
		],
		[],
		[
			5,
			6
		],
		[],
		[
			7,
			10,
			11
		],
		[
			8,
			9
		],
		[],
		[],
		[],
		[],
		[
			13,
			32,
			44
		],
		[
			14,
			15,
			19
		],
		[],
		[
			16,
			17,
			18
		],
		[],
		[],
		[],
		[
			20,
			27,
			28
		],
		[
			21,
			22
		],
		[],
		[
			23
		],
		[
			24,
			25,
			26
		],
		[],
		[],
		[],
		[],
		[
			29,
			30
		],
		[],
		[
			31
		],
		[],
		[
			33,
			40
		],
		[
			34,
			35
		],
		[],
		[
			36
		],
		[
			37,
			38,
			39
		],
		[],
		[],
		[],
		[
			41,
			42
		],
		[],
		[
			43
		],
		[],
		[
			45,
			46,
			47
		],
		[],
		[],
		[],
		[
			49
		],
		[],
		[
			51
		],
		[
			52,
			53
		],
		[],
		[
			54,
			55
		],
		[],
		[
			56,
			57,
			58,
			59
		],
		[],
		[],
		[],
		[]
	]
}