{
	"nodes": [
		"Module",
		"FunctionDef",
		"arguments",
		"arg",
		"For",
		"Name",
		"Call",
		"Name",
		"Call",
		"Name",
		"Name",
		"Assign",
		"Name",
		"Subscript",
		"Name",
		"Index",
		"Name",
		"Assign",
		"Name",
		"Name",
		"While",
		"BoolOp",
		"And",
		"Compare",
		"Name",
		"Gt",
		"Num",
		"Compare",
		"Name",
		"Lt",
		"Subscript",
		"Name",
		"Index",
		"BinOp",
		"Name",
		"Sub",
		"Num",
		"Assign",
		"Subscript",
		"Name",
		"Index",
		"Name",
		"Subscript",
		"Name",
		"Index",
		"BinOp",
		"Name",
		"Sub",
		"Num",
		"Assign",
		"Subscript",
		"Name",
		"Index",
		"BinOp",
		"Name",
		"Sub",
		"Num",
		"Name",
		"AugAssign",
		"Name",
		"Sub",
		"Num",
		"Return",
		"Name",
		"Expr",
		"Call",
		"Name",
		"Call",
		"Name",
		"List",
		"Num",
		"Num",
		"Num",
		"Num"
	],
	"adj": [
		[
			1,
			64
		],
		[
			2,
			4,
			62
		],
		[
			3
		],
		[],
		[
			5,
			6,
			11,
			17,
			20
		],
		[],
		[
			7,
			8
		],
		[],
		[
			9,
			10
		],
		[],
		[],
		[
			12,
			13
		],
		[],
		[
			14,
			15
		],
		[],
		[
			16
		],
		[],
		[
			18,
			19
		],
		[],
		[],
		[
			21,
			37,
			49,
			58
		],
		[
			22,
			23,
			27
		],
		[],
		[
			24,
			25,
			26
		],
		[],
		[],
		[],
		[
			28,
			29,
			30
		],
		[],
		[],
		[
			31,
			32
		],
		[],
		[
			33
		],
		[
			34,
			35,
			36
		],
		[],
		[],
		[],
		[
			38,
			42
		],
		[
			39,
			40
		],
		[],
		[
			41
		],
		[],
		[
			43,
			44
		],
		[],
		[
			45
		],
		[
			46,
			47,
			48
		],
		[],
		[],
		[],
		[
			50,
			57
		],
		[
			51,
			52
		],
		[],
		[
			53
		],
		[
			54,
			55,
			56
		],
		[],
		[],
		[],
		[],
		[
			59,
			60,
			61
		],
		[],
		[],
		[],
		[
			63
		],
		[],
		[
			65
		],
		[
			66,
			67
		],
		[],
		[
			68,
			69
		],
		[],
		[
			70,
			71,
			72,
			73
		],
		[],
		[],
		[],
		[]
	]
}