{
	"nodes": [
		"Module",
		"FunctionDef",
		"arguments",
		"arg",
		"For",
		"Name",
		"Call",
		"Name",
		"Call",
		"Name",
		"Name",
		"Assign",
		"Name",
		"NameConstant",
		"For",
		"Name",
		"Call",
		"Name",
		"BinOp",
		"Call",
		"Name",
		"Name",
		"Sub",
		"Num",
		"If",
		"Compare",
		"Subscript",
		"Name",
		"Index",
		"Name",
		"Gt",
		"Subscript",
		"Name",
		"Index",
		"BinOp",
		"Name",
		"Add",
		"Num",
		"Then",
		"Assign",
		"Tuple",
		"Subscript",
		"Name",
		"Index",
		"Name",
		"Subscript",
		"Name",
		"Index",
		"BinOp",
		"Name",
		"Add",
		"Num",
		"Tuple",
		"Subscript",
		"Name",
		"Index",
		"BinOp",
		"Name",
		"Add",
		"Num",
		"Subscript",
		"Name",
		"Index",
		"Name",
		"Assign",
		"Name",
		"NameConstant",
		"Else",
		"If",
		"UnaryOp",
		"Not",
		"Name",
		"Then",
		"Break",
		"Else",
		"Return",
		"Name"
	],
	"adj": [
		[
			1
		],
		[
			2,
			4,
			75
		],
		[
			3
		],
		[],
		[
			5,
			6,
			11,
			14,
			68
		],
		[],
		[
			7,
			8
		],
		[],
		[
			9,
			10
		],
		[],
		[],
		[
			12,
			13
		],
		[],
		[],
		[
			15,
			16,
			24
		],
		[],
		[
			17,
			18
		],
		[],
		[
			19,
			22,
			23
		],
		[
			20,
			21
		],
		[],
		[],
		[],
		[],
		[
			25,
			38,
			67
		],
		[
			26,
			30,
			31
		],
		[
			27,
			28
		],
		[],
		[
			29
		],
		[],
		[],
		[
			32,
			33
		],
		[],
		[
			34
		],
		[
			35,
			36,
			37
		],
		[],
		[],
		[],
		[
			39,
			64
		],
		[
			40,
			52
		],
		[
			41,
			45
		],
		[
			42,
			43
		],
		[],
		[
			44
		],
		[],
		[
			46,
			47
		],
		[],
		[
			48
		],
		[
			49,
			50,
			51
		],
		[],
		[],
		[],
		[
			53,
			60
		],
		[
			54,
			55
		],
		[],
		[
			56
		],
		[
			57,
			58,
			59
		],
		[],
		[],
		[],
		[
			61,
			62
		],
		[],
		[
			63
		],
		[],
		[
			65,
			66
		],
		[],
		[],
		[],
		[
			69,
			72,
			74
		],
		[
			70,
			71
		],
		[],
		[],
		[
			73
		],
		[],
		[],
		[
			76
		],
		[]
	],
	"var": {
		"sort": [
			1
		],
		"a": [
			3,
			10,
			21,
			27,
			32,
			42,
			46,
			54,
			61,
			76
		],
		"i": [
			5
		],
		"range": [
			7,
			17
		],
		"len": [
			9,
			20
		],
		"swapped": [
			12,
			65,
			71
		],
		"j": [
			15,
			29,
			35,
			44,
			49,
			57,
			63
		]
	}
}