{
	"nodes": [
		"Module",
		"FunctionDef",
		"arguments",
		"arg",
		"For",
		"Name",
		"Call",
		"Name",
		"Call",
		"Name",
		"Name",
		"For",
		"Name",
		"Call",
		"Name",
		"BinOp",
		"Call",
		"Name",
		"Name",
		"Sub",
		"Name",
		"Pass",
		"Return",
		"Name"
	],
	"adj": [
		[
			1
		],
		[
			2,
			4,
			22
		],
		[
			3
		],
		[],
		[
			5,
			6,
			11
		],
		[],
		[
			7,
			8
		],
		[],
		[
			9,
			10
		],
		[],
		[],
		[
			12,
			13,
			21
		],
		[],
		[
			14,
			15
		],
		[],
		[
			16,
			19,
			20
		],
		[
			17,
			18
		],
		[],
		[],
		[],
		[],
		[],
		[
			23
		],
		[]
	],
	"var": {
		"sort": [
			1
		],
		"a": [
			3,
			10,
			18,
			23
		],
		"i": [
			5,
			20
		],
		"range": [
			7,
			14
		],
		"len": [
			9,
			17
		],
		"j": [
			12
		]
	}
}