rtgae	rtgae_with_gru
0.937814	0.688164
0.663203	0.645479
0.649833	0.609964
0.622254	0.574433
0.536073	0.534212
0.444973	0.487482
0.378258	0.43601
0.33932	0.38588
0.3188	0.343667
0.306171	0.311277
0.294947	0.287392
0.282519	0.26965
0.268714	0.255618
0.255738	0.244069
0.246169	0.233565
0.240391	0.22401
0.236892	0.215378
0.23395	0.208162
0.23058	0.202352
0.226711	0.198495
0.222851	0.196124
0.21945	0.194456
0.216658	0.192688
0.21452	0.190363
0.21295	0.187598
0.211689	0.184869
0.210561	0.182627
0.209555	0.180742
0.208558	0.179402
0.207354	0.178057
0.205902	0.176978
0.204405	0.175636
0.203151	0.174252
0.202339	0.172785
0.201912	0.171254
0.201627	0.169881
0.201295	0.168493
0.200827	0.167258
0.200167	0.166144
0.199375	0.165085
0.198621	0.164008
0.198042	0.162783
0.197673	0.161528
0.197462	0.160292
0.197302	0.159075
0.197103	0.157853
0.196832	0.156717
0.196487	0.155683
0.196107	0.15465
0.195744	0.153553
0.195428	0.152389
0.195172	0.15126
0.194987	0.150167
0.194849	0.149152
0.194719	0.148073
0.194556	0.14688
0.194343	0.145476
0.194095	0.144072
0.193853	0.142906
0.193652	0.140912
0.193504	0.13911
0.193389	0.137573
0.193275	0.135397
0.193144	0.133593
0.192992	0.131388
0.192825	0.129003
0.192658	0.126086
0.192508	0.122314
0.192381	0.130139
0.192269	0.136311
0.192156	0.14263
0.192037	0.160187
0.19191	0.159626
0.191781	0.150385
0.191654	0.142402
0.191534	0.136531
0.191417	0.132585
0.191303	0.126113
0.19119	0.126592
0.191078	0.13092
0.190967	0.133526
0.190853	0.1329
0.190736	0.130445
0.190619	0.126172
0.190505	0.122851
0.190391	0.121855
0.19028	0.122907
0.190166	0.123553
0.190051	0.123523
0.189935	0.120621
0.189817	0.119308
0.189697	0.118537
0.189577	0.117476
0.189457	0.115565
0.189335	0.114039
0.189212	0.114269
0.189087	0.113728
0.18896	0.111043
0.18883	0.109001
0.188698	0.1086
0.188565	0.106531
0.18843	0.104209
0.188293	0.104319
0.188153	0.100139
0.188011	0.0974678
0.187866	0.0948775
0.187718	0.0949167
0.187567	0.0903014
0.187414	0.086515
0.187258	0.0861906
0.187099	0.462162
0.186937	0.195697
0.186772	0.252263
0.186602	0.259365
0.18643	0.241288
0.186255	0.222624
0.186076	0.205595
0.185893	0.188594
0.185706	0.174996
0.185515	0.163974
0.185321	0.156256
0.185122	0.151692
0.184919	0.151827
0.184712	0.153099
0.1845	0.153563
0.184283	0.151208
0.184063	0.14671
0.183836	0.141773
0.183604	0.137695
0.183367	0.135362
0.183124	0.134129
0.182876	0.13385
0.18262	0.133718
0.182359	0.132977
0.18209	0.131688
0.181814	0.130533
0.18153	0.129521
0.181237	0.129
0.180935	0.129105
0.180625	0.129317
0.180303	0.129497
0.179971	0.129139
0.179625	0.128416
0.179267	0.127813
0.178895	0.127194
0.178507	0.126735
0.178103	0.126711
0.177681	0.126527
0.17724	0.126327
0.176778	0.125896
0.176293	0.125451
0.175786	0.124809
0.175252	0.124214
0.174693	0.123719
0.174106	0.123153
0.173492	0.122991
0.172848	0.122502
0.172175	0.122256
0.171474	0.121959
0.170745	0.121477
0.169989	0.121085
0.169205	0.120721
0.168395	0.120417
0.16756	0.11982
0.1667	0.119462
0.165811	0.119207
0.164891	0.118728
0.163934	0.118354
0.162931	0.117971
0.161867	0.117529
0.160719	0.117081
0.159462	0.116624
0.158056	0.116048
0.15645	0.115887
0.154586	0.115025
0.152399	0.114468
0.149814	0.113951
0.146746	0.113618
0.142987	0.11305
0.137997	0.112525
0.228875	0.112166
0.375789	0.111637
0.289292	0.111279
0.226846	0.110831
0.223053	0.110454
0.221081	0.109872
0.223137	0.109317
0.216774	0.108831
0.197072	0.108298
0.178737	0.10778
0.17308	0.107298
0.179019	0.106806
0.185382	0.106201
0.184708	0.105744
0.179327	0.105127
0.173242	0.104436
0.168448	0.103945
0.166775	0.103584
0.167819	0.102776
0.168584	0.102156
0.167989	0.101621
0.167392	0.10083
0.167002	0.100032
0.165821	0.0992555
0.163915	0.0987248
0.161965	0.0972707
0.160178	0.0962819
0.158991	0.0955401
0.159011	0.0940453
0.159818	0.0941625
0.160256	0.0955681
0.159804	0.0938436
0.158757	0.0930912
0.157577	0.0920804
0.156656	0.0888257
0.156163	0.0898912
0.155906	0.0878259
0.155703	0.0855113
0.155622	0.0854593
0.15563	0.0834389
0.155426	0.0799363
0.154911	0.0793598
0.154337	0.0758137
0.153903	0.0860822
0.15357	0.145407
0.153295	0.119007
0.153096	0.102091
0.152936	0.0840623
0.152743	0.0881431
0.152485	0.0801291
0.152157	0.0863281
0.151792	0.082086
0.151477	0.0848431
0.151248	0.0852329
0.151043	0.0799837
0.150807	0.0819323
0.150543	0.0773064
0.150267	0.0771175
0.149978	0.0778811
0.149695	0.074095
0.14943	0.0735579
0.149168	0.0715695
0.148891	0.0702167
0.148607	0.0701758
0.148322	0.0724311
0.148024	0.0710054
0.147709	0.0653966
0.147382	0.0678084
0.147049	0.0626428
0.146714	0.0659346
0.146378	0.106135
0.146028	0.0613579
0.145651	0.0697125
0.145253	0.107996
0.144837	0.0881851
0.144402	0.0979404
0.143946	0.0691877
0.143474	0.0816412
0.142984	0.0804742
0.14247	0.0725607
0.141927	0.0771153
0.141353	0.0717851
0.140748	0.0765111
0.140115	0.0744201
0.139457	0.0712134
0.138773	0.0712752
0.138057	0.0679443
0.137309	0.0692526
0.136524	0.0678681
0.135702	0.0658425
0.134845	0.0661586
0.133948	0.0646611
0.133005	0.0625549
0.132007	0.0600555
0.130937	0.0595276
0.129774	0.0565864
0.128487	0.0593944
0.127036	0.0900858
0.125384	0.081483
0.123513	0.0794654
0.121452	0.0937554
0.119232	0.0821015
0.116803	0.0688432
0.114026	0.0691253
0.110683	0.0803916
0.10637	0.0757917
0.101197	0.0707111
0.770572	0.0693477
0.581173	0.067759
0.660901	0.0700011
0.712116	0.0690973
0.658634	0.0676715
0.505495	0.0704846
0.358786	0.0639681
0.274213	0.064579
0.239437	0.0605556
0.227211	0.0582002
0.228085	0.0542273
0.240893	0.0549927
0.256115	0.0545176
0.25853	0.0496389
0.241445	0.0514217
0.212128	0.125165
0.184511	0.0663249
0.168615	0.0467988
0.166046	0.0609624
0.172151	0.0676331
0.180485	0.0884361
0.186155	0.0918197
0.187051	0.0901429
0.183435	0.0720438
0.176975	0.0775687
0.169773	0.0781387
0.163544	0.0741701
0.159178	0.0644111
0.156801	0.0670272
0.156121	0.0728052
0.156682	0.0774421
0.157952	0.0748173
0.159302	0.0686246
0.160087	0.0664
0.15985	0.067544
0.158523	0.0683213
0.156435	0.067974
0.154115	0.0659546
0.152066	0.0647838
0.150604	0.0655731
0.149814	0.065234
0.149569	0.0643727
0.149619	0.0610534
0.149689	0.0581389
0.149606	0.0586121
0.149331	0.0599756
0.14891	0.056495
0.148399	0.0539034
0.147821	0.0535059
0.147191	0.0517479
0.14654	0.0499873
0.145895	0.0512439
0.145277	0.0714555
0.144698	0.0860535
0.144182	0.132914
0.14375	0.129373
0.143402	0.0894932
0.143097	0.120262
0.142785	0.0659624
0.142422	0.0855806
0.141988	0.0610593
0.141485	0.0879291
0.140931	0.069989
0.140359	0.0701125
0.1398	0.0744623
0.139268	0.068816
0.13876	0.0681488
0.138261	0.0735721
0.137758	0.0696832
0.137241	0.0648286
0.136703	0.0673052
0.136141	0.0686182
0.135551	0.0680095
0.13493	0.0677174
0.134276	0.0645126
0.133576	0.062563
0.132824	0.063485
0.132018	0.0648717
0.13115	0.0632317
0.130219	0.0637061
0.129201	0.0607659
0.12808	0.0582584
0.126816	0.0588739
0.125355	0.0589851
0.123607	0.0567669
0.121448	0.0548917
0.118675	0.0525001
0.116163	0.0518797
0.153355	0.0509529
0.160676	0.0484063
0.147792	0.04711
0.122754	0.0475391
0.149716	0.0694391
0.1652	0.105119
0.163887	0.125284
0.155421	0.151733
0.145202	0.148803
0.136285	0.134808
0.138702	0.128759
0.140778	0.119125
0.124489	0.104511
0.132225	0.100483
0.136726	0.100945
0.134587	0.0922013
0.129089	0.0822842
0.119464	0.0814363
0.121748	0.0812148
0.118161	0.0784016
0.11765	0.0806775
0.117712	0.0823822
0.116532	0.0797612
0.118039	0.0798835
0.115923	0.0807375
0.144282	0.077563
0.129316	0.0773061
0.139892	0.078072
0.14075	0.0758858
0.134446	0.0758962
0.168418	0.0753322
0.158331	0.0736829
0.127161	0.0726404
0.130095	0.0722793
0.132458	0.0721793
0.137954	0.0712916
0.127043	0.0710223
0.124815	0.0698186
0.12121	0.0691966
0.116455	0.0681815
0.131015	0.0664705
0.108403	0.0654983
0.132073	0.0647974
0.10887	0.0642204
0.134227	0.0622213
0.134554	0.0610338
0.127283	0.0607013
0.129886	0.0600559
0.124663	0.0579461
0.119675	0.0579012
0.124677	0.0557359
0.121854	0.0541936
0.113148	0.0544969
0.118348	0.0576279
0.110087	0.0765058
0.114006	0.127409
0.114589	0.127626
0.116718	0.0861486
0.109342	0.158757
0.105012	0.0778086
0.119645	0.105877
0.104775	0.0767217
0.116165	0.0805439
0.109568	0.0790493
0.110622	0.0644398
0.110455	0.0848036
0.107068	0.0783595
0.10391	0.0587262
0.100284	0.0671591
0.0978089	0.074542
0.110232	0.0584921
0.171083	0.0639779
0.186406	0.0699552
0.170274	0.0665366
0.144793	0.0582071
0.140493	0.0625793
0.143523	0.0661301
0.146896	0.058225
0.148561	0.0583607
0.147682	0.0603501
0.144649	0.057384
0.140647	0.0674168
0.137066	0.0694111
0.134839	0.081369
0.133862	0.0935576
0.133337	0.0971515
0.132693	0.0933088
0.13184	0.0865604
0.13082	0.0799787
0.129597	0.0767185
0.128158	0.0765104
0.126559	0.0783106
0.124952	0.0786425
0.123551	0.0758462
0.122466	0.0731894
0.121403	0.0712589
0.11959	0.0701026
0.116133	0.0694428
0.111315	0.0688966
0.110816	0.0673804
0.112957	0.066623
0.134897	0.0639384
0.108717	0.0619796
0.125696	0.059018
0.131055	0.0577997
0.133556	0.055215
0.135104	0.0561481
0.135123	0.0662834
0.134343	0.0665288
0.133372	0.0686206
0.132322	0.0660153
0.130938	0.0630044
0.129009	0.0639273
0.126665	0.0572421
0.124096	0.062509
0.121362	0.0599734
0.118622	0.0542494
0.116313	0.0735209
0.114753	0.075114
0.1118	0.0534432
0.101152	0.0935715
0.0922017	0.0636454
0.0931615	0.0786571
0.228635	0.0530794
0.227962	0.0765232
0.192872	0.0563332
0.177336	0.0609759
0.177729	0.0657055
0.178915	0.0566314
0.17769	0.0558445
0.174183	0.0609212
0.169241	0.0537693
0.163657	0.0564897
0.158042	0.0595844
0.152806	0.0533727
0.148168	0.0529072
0.1445	0.0558755
0.142449	0.0511687
0.142506	0.0512497
0.144341	0.051566
0.146754	0.0487536
0.148267	0.0471289
0.147952	0.0494433
0.145887	0.0460774
0.142925	0.0453924
0.140089	0.0440227
0.138073	0.0432319
0.137083	0.042416
0.136934	0.0386132
0.137248	0.037055
0.137649	0.0360904
0.13789	0.03441
0.137859	0.049045
0.137524	0.183048
0.136903	0.0799297
0.136053	0.0677868
0.135095	0.0639422
0.13417	0.0854334
0.133412	0.0567348
0.132893	0.0721793
0.132599	0.0597549
0.132436	0.0784132
0.132277	0.0606103
0.13202	0.061888
0.131624	0.0673482
0.131116	0.0608764
0.130558	0.0627799
0.130011	0.0683038
0.12951	0.0571203
0.129056	0.0590826
0.12863	0.0552176
0.128203	0.0555143
0.12775	0.0537469
0.127256	0.0555333
0.126712	0.0533394
0.126121	0.053141
0.125491	0.0446096
0.124831	0.0521201
0.124143	0.0590133
0.123431	0.0478281
0.122684	0.0736976
0.121882	0.0447002
0.121008	0.0662202
0.120043	0.0572244
0.118969	0.0467682
0.117766	0.0579492
0.116398	0.041885
0.114811	0.0605837
0.112924	0.0466455
0.110623	0.0602344
0.107706	0.0411908
0.103667	0.0590485
0.097869	0.0434699
0.10755	0.050389
0.145176	0.040171
0.143608	0.0517492
0.098593	0.0383781
0.140166	0.0450895
0.156195	0.0395467
0.155104	0.0388684
0.159149	0.0418714
0.165816	0.0352946
0.161072	0.0346054
0.148021	0.0391401
0.136211	0.0336991
0.127459	0.0313423
0.119555	0.037148
0.115646	0.0639462
0.107472	0.046062
0.103664	0.0361001
0.125642	0.0431225
0.122031	0.0321653
0.111407	0.0300362
0.11127	0.0345093
0.115607	0.0383816
0.115595	0.0363085
0.113779	0.0291785
0.112485	0.0287497
0.112547	0.0329309
0.113247	0.0395819
0.112221	0.0506066
0.106265	0.0351748
0.098034	0.0361191
0.0985827	0.0821931
0.105593	0.0960677
0.101464	0.0476091
0.113148	0.107173
0.0980602	0.0395818
0.0962787	0.0821951
0.0938449	0.0648443
0.0936681	0.0509368
0.0948039	0.0605372
0.0931369	0.041438
0.0886034	0.0672877
0.0988074	0.0492513
0.14265	0.0423267
0.153158	0.0615176
0.130272	0.0413741
0.118595	0.0437335
0.116118	0.0474297
0.118575	0.0428234
0.121516	0.0406735
0.115596	0.0441172
0.114831	0.042323
0.114103	0.0398837
0.112377	0.0389391
0.110214	0.0410677
0.108037	0.0380736
0.109154	0.0333328
0.111912	0.0376143
0.117209	0.0378727
0.113918	0.0347996
0.105376	0.0351488
0.136745	0.0388196
0.108439	0.0315539
0.100091	0.0298814
0.121603	0.0390477
0.129392	0.0468179
0.144308	0.0288659
0.142598	0.0400271
0.129342	0.0385729
0.129147	0.0297427
0.111249	0.0386459
0.107023	0.0317154
0.105186	0.0298266
0.104995	0.0379028
0.116953	0.0296827
0.103057	0.0263234
0.103366	0.0278105
0.103105	0.036882
0.100182	0.0396313
0.113185	0.0279681
0.0976625	0.0247882
0.098133	0.0253086
0.0959221	0.0353709
0.0929735	0.0441989
0.0919246	0.031303
0.0902987	0.0251429
0.0897688	0.024559
0.0932781	0.027879
0.106838	0.0296144
0.0899062	0.028455
0.105756	0.0268581
0.114546	0.0232807
0.120191	0.0220886
0.11266	0.0266757
0.103816	0.0429964
0.105574	0.0535008
0.113497	0.0340085
0.114923	0.0220935
0.107489	0.0237113
0.102142	0.0269403
0.10199	0.0253385
0.103394	0.0242242
0.10183	0.021314
0.096055	0.0211411
0.0889516	0.0207135
0.0858274	0.0231769
0.0875195	0.0367312
0.115111	0.0710317
0.12993	0.0390779
0.111473	0.0216669
0.108111	0.0306738
0.117645	0.0421225
0.113887	0.0225994
0.108513	0.0294313
0.102205	0.0289845
0.100667	0.0229398
0.103549	0.0347715
0.0968083	0.040065
0.0924613	0.0260392
0.0943484	0.033413
0.0934829	0.0298733
0.0943009	0.023866
0.115046	0.0330874
0.0954054	0.0231433
0.100473	0.0312122
0.108995	0.026664
0.113559	0.0223405
0.117632	0.0298971
0.116135	0.025352
0.109777	0.0227125
0.103189	0.0304691
0.0993907	0.0221028
0.0978643	0.0229433
0.0954147	0.0314531
0.108859	0.0230183
0.0930489	0.0209997
0.0937967	0.0260453
0.10772	0.0221603
0.0892818	0.0185257
0.0869206	0.0225895
0.0936931	0.0282666
0.0954552	0.028197
0.0857595	0.0254221
0.0859716	0.0194475
0.0839278	0.0174372
0.0854724	0.0233177
0.0783669	0.0274155
0.0769017	0.0312968
0.0755641	0.0512687
0.0841112	0.0744846
0.105113	0.152801
0.0884734	0.100483
0.0890155	0.107881
0.100814	0.0277243
0.11043	0.0402321
0.111953	0.0500087
0.102575	0.0402804
0.0988033	0.0305318
0.0898768	0.038863
0.0947076	0.0423102
0.0924981	0.0397562
0.0918654	0.0292183
0.084772	0.0323716
0.0786417	0.031859
0.0832593	0.0299017
0.0728222	0.028141
0.0942192	0.0344838
0.0802126	0.0276157
0.087407	0.0296171
0.0916877	0.0310464
0.08517	0.025793
0.0739975	0.027107
0.0792067	0.0334111
0.0855698	0.0460845
0.0748351	0.0236715
0.0894531	0.0457577
0.0919662	0.0374608
0.0763366	0.026352
0.0874521	0.0353018
0.0712422	0.026546
0.0796685	0.0284773
0.0770482	0.027872
0.0683552	0.0263554
0.0785521	0.0286584
0.062703	0.0242079
0.083592	0.0278558
0.0835799	0.0246445
0.0610077	0.0236289
0.0760929	0.0237993
0.0634454	0.0224496
0.0680408	0.0236492
0.0625279	0.0273787
0.0603075	0.0327025
0.0650663	0.0329823
0.151394	0.0308004
0.146491	0.0295777
0.137614	0.0284823
0.0706821	0.0253629
0.0845919	0.0210051
0.0982401	0.0198444
0.099815	0.0198101
0.0953779	0.0201175
0.0894456	0.0217147
0.0852285	0.022907
0.0868353	0.0314077
0.0774458	0.0456059
0.0775221	0.0223516
0.0980164	0.0203326
0.0843172	0.0367304
0.0782272	0.0327042
0.0766404	0.0193257
0.084302	0.022741
0.0775161	0.0360503
0.0771577	0.0390668
0.0846001	0.0216408
0.0779949	0.0245274
0.0797636	0.0355112
0.082979	0.0202315
0.0788224	0.0270175
0.0773543	0.0232399
0.0870722	0.0206941
0.07458	0.0276394
0.073807	0.0214357
0.0810942	0.0198144
0.0716099	0.026097
0.0750473	0.0222866
0.071191	0.0183196
0.0687361	0.0284019
0.0713179	0.0384923
0.0657022	0.0226799
0.0673395	0.0200879
0.0662231	0.0283988
0.072368	0.0205681
0.0908217	0.0216307
0.0801593	0.0256402
0.0756635	0.0186134
0.0663234	0.0244256
0.0813112	0.0418628
0.0771695	0.0179592
0.0667406	0.0381996
0.0834445	0.0312714
0.0689078	0.0193387
0.070434	0.0323974
0.0796853	0.0214626
0.0649239	0.026351
0.112856	0.0315374
0.0918697	0.0182557
0.0803793	0.0264735
0.0835646	0.0180371
0.0832658	0.0234232
0.0757973	0.0198808
0.0804708	0.0195428
0.0756706	0.0240143
0.0629346	0.0176578
0.0686563	0.020807
0.065477	0.0269268
0.0825764	0.0211535
0.0795549	0.0165264
0.0657565	0.020758
0.074652	0.0205334
0.0629608	0.0156955
0.0702767	0.0222096
0.0696221	0.035937
0.0647821	0.0380905
0.0649397	0.0434415
0.0576196	0.024849
0.0637273	0.0269079
0.0571349	0.0557549
0.0698223	0.0287907
0.0550533	0.0615151
0.0565457	0.0278161
0.0677245	0.0252827
0.055876	0.0490566
0.0516082	0.0447667
0.053028	0.0280868
0.075484	0.0351119
0.0643545	0.024583
0.0487201	0.0340687
0.0595192	0.0234514
0.0514659	0.0290695
0.0543603	0.027831
0.0677541	0.0228501
0.14857	0.02481
0.0771057	0.0237753
0.116919	0.0273602
0.10547	0.0211686
0.0822904	0.0268404
0.0785812	0.0214685
0.0978255	0.0227943
0.120843	0.0226443
0.118863	0.0232277
0.107545	0.0220976
0.0958704	0.0205363
0.0786618	0.0254808
0.0740176	0.0204486
0.0915676	0.0205172
0.0924695	0.0221066
0.0696211	0.0200217
0.0711247	0.020181
0.0855578	0.0231568
0.0808334	0.0182765
0.0683659	0.0172876
0.06972	0.0219259
0.0769407	0.0207931
0.0726956	0.0207085
0.0702125	0.0207746
0.0640628	0.0223513
0.0705077	0.0160607
0.065174	0.0155907
0.062456	0.0234641
0.0609315	0.0357087
0.0579021	0.0297445
0.0586664	0.0181595
0.0564972	0.0308992
0.0619488	0.0447662
0.0550888	0.0213326
0.0611214	0.0272057
0.0652814	0.0611885
0.0549063	0.0280146
0.0489863	0.038173
0.0494222	0.107022
0.053252	0.0500592
0.0664765	0.106127
0.0486789	0.0209407
0.050076	0.116615
0.0725784	0.0256027
0.0503054	0.0880877
0.104764	0.0258841
0.0484653	0.0569348
0.0939663	0.047709
0.10321	0.0300822
0.0912483	0.0479548
0.0831513	0.0352644
0.0802055	0.0320811
0.0816944	0.0401559
0.0693228	0.041968
0.0740405	0.0277694
0.0557914	0.0334742
0.0684743	0.0379804
0.0551161	0.0345707
0.0601809	0.0289269
0.0477292	0.0279603
0.0656353	0.0343611
0.0594643	0.0338459
0.0585937	0.0274576
0.0648393	0.0296421
0.0598628	0.027863
0.0630678	0.030742
0.0506331	0.0263415
0.0719573	0.0262327
0.0594334	0.0261742
0.0743871	0.0284114
0.0705949	0.0243297
0.0646738	0.0255291
0.0648301	0.0246942
0.067152	0.0236918
0.0692285	0.0213427
0.051647	0.0218957
0.0709281	0.0230401
0.0737832	0.0258257
0.0531008	0.0320999
0.0691398	0.0244778
0.059816	0.0205127
0.0580097	0.0191357
0.0623996	0.0200946
0.0575864	0.0184904
0.0480268	0.0181206
0.0796237	0.0198038
0.100075	0.0230741
0.0717512	0.0393874
0.0734882	0.0304887
0.0888402	0.0288098
0.0916957	0.018142
0.0816598	0.0232007
0.0648496	0.0425493
0.081767	0.0189772
0.0821632	0.0579374
0.0729963	0.0290819
0.0803873	0.0386645
0.0825189	0.0263446
0.0845658	0.0272468
0.0864612	0.0257316
0.0752877	0.0261973
0.0748269	0.0219807
0.0713059	0.0236696
0.0953077	0.0205322
0.0861506	0.0236083
0.0709927	0.0198959
0.0783824	0.0224851
0.0748711	0.0191582
0.0730136	0.0213431
0.0739702	0.0193601
0.0688464	0.0209196
0.0714388	0.0181662
0.0713945	0.0214593
0.0672389	0.0185993
0.0698536	0.0185912
0.0664085	0.0188793
0.0650053	0.0165548
0.0622287	0.0221489
0.0637115	0.0195625
0.0590416	0.016119
0.0566549	0.0249256
0.0587338	0.0262228
0.0530206	0.0148162
0.0530361	0.0260163
0.0574873	0.036129
0.0961433	0.0147831
0.0627621	0.0286665
0.0750984	0.0321816
0.0575795	0.0153058
0.0683359	0.0294509
0.0817019	0.024118
0.0591949	0.0166577
0.062444	0.0238223
0.0707273	0.0164688
0.0593741	0.0177804
0.0638359	0.0166095
0.0637309	0.0161376
0.0606031	0.015403
0.0548849	0.0151279
0.0604699	0.0146064
0.060344	0.0140446
0.0543913	0.0142735
0.0549901	0.0138668
0.0572465	0.01351
0.054593	0.0163759
0.0518134	0.0176425
0.0522887	0.0160535
0.0513297	0.0162711
0.0493878	0.0204825
0.0478222	0.0241477
0.0445764	0.0263683
0.0474332	0.0202683
0.0456445	0.021188
0.0520699	0.018408
0.0500432	0.0170392
0.0552871	0.0169316
0.0779269	0.0185806
0.0393122	0.0150029
0.0708634	0.012184
0.0568705	0.0146174
0.0562482	0.0171521
0.0664103	0.0137331
0.0619978	0.0138636
0.0777978	0.0196342
0.0839299	0.0162839
0.0699637	0.0120934
0.0722571	0.0149414
0.0437534	0.0184196
0.0564443	0.0166057
0.0505873	0.0129368
0.0461436	0.0118658
0.0611765	0.0121533
0.0456181	0.0134278
0.0610947	0.0164486
0.0702684	0.0250631
0.0674591	0.0653155
0.0480098	0.0625383
0.0621241	0.0573542
0.0540301	0.018038
0.0510627	0.0369884
0.0555225	0.0627598
0.0434986	0.040252
0.0595221	0.0691092
0.0381223	0.0421121
0.0564328	0.0207677
0.0403392	0.0249991
0.039809	0.0231053
0.0491835	0.0197597
0.0412493	0.0188859
0.0365265	0.025404
0.0427575	0.017833
0.0414201	0.0195357
0.0374699	0.0176793
0.0435252	0.0213133
0.0369612	0.0184974
0.0405373	0.0194021
0.0375309	0.0172529
0.0344041	0.0175889
0.0388115	0.0177183
0.0429224	0.0174304
0.0501281	0.015177
0.0520517	0.01548
0.0404601	0.0156392
0.0540888	0.0142596
0.054573	0.0151671
0.0365049	0.0161792
0.0512463	0.0145966
0.0435049	0.0139706
0.0433199	0.0131577
0.0619671	0.0129363
0.0385966	0.0141906
0.0455291	0.0205025
0.0459037	0.034806
0.0354885	0.0599939
0.0352051	0.0399186
0.0488053	0.0579564
0.0346035	0.026764
0.0345726	0.0423231
0.0616001	0.026213
0.0567192	0.0269247
0.0435598	0.0328792
0.0472928	0.0309296
0.0421642	0.0257991
0.0342263	0.0312182
0.0331684	0.0218433
0.0346625	0.0296056
0.0360491	0.0197582
0.0607055	0.0332859
0.137689	0.0194565
0.0879111	0.0326118
0.0930799	0.0187004
0.106087	0.0481794
0.116748	0.0352621
0.118361	0.0450116
0.110279	0.0570394
0.0973585	0.0392447
0.0830684	0.069186
0.0704348	0.0809343
0.0836531	0.0270789
0.0730887	0.0645954
0.0643162	0.019757
0.15693	0.0407453
0.137028	0.0360885
0.130515	0.0233074
0.132329	0.0367856
0.129274	0.0235778
0.12477	0.0287443
0.119595	0.0327167
0.114707	0.0220024
0.111945	0.0272076
0.11087	0.0288348
0.109033	0.0216155
0.106746	0.024809
0.106088	0.0261031
0.107188	0.0204964
0.108698	0.0248297
0.109259	0.0236405
0.107601	0.0206555
0.104701	0.0234919
0.102507	0.0205799
0.101564	0.0206407
0.101497	0.0217846
0.101778	0.0189314
0.101976	0.0208889
0.101852	0.0180082
0.101352	0.0195575
0.100556	0.0180994
0.0995962	0.0184996
0.0985971	0.0171628
0.0976374	0.0182557
0.0967454	0.0158497
0.0958986	0.0161383
0.0950654	0.0150485
0.0941909	0.0147219
0.0932452	0.0159802
0.0922445	0.0177238
0.0912273	0.0140528
0.0902333	0.015285
0.089211	0.014579
0.088019	0.013347
0.0865737	0.0131202
0.0849738	0.0128561
0.0833711	0.0128535
0.0812777	0.0120484
0.0788472	0.0125608
0.0759738	0.0257825
0.0758655	0.0550696
0.129303	0.0538584
0.0750502	0.0452245
0.091391	0.0487201
0.0806582	0.0209701
0.0747774	0.0337334
0.0787586	0.0155809
0.0782688	0.0293404
0.0707993	0.0200836
0.0720292	0.0235411
0.0677713	0.0180006
0.0699977	0.020683
0.0662762	0.0170905
0.0601736	0.0189905
0.0690987	0.0218862
0.0611955	0.0160644
0.0618469	0.0173895
0.0630863	0.0178474
0.0619227	0.0156368
0.0554742	0.0165577
0.0617263	0.0152185
0.0615779	0.0151248
0.0527692	0.0153082
0.0565766	0.0151721
0.0624175	0.0142718
0.0562881	0.01379
0.0614558	0.0142374
0.0555363	0.0141255
0.0540215	0.0133576
0.0527436	0.0156044
0.0544403	0.0129807
0.0533312	0.0138064
0.0506122	0.0135272
0.0519554	0.0128683
0.0497869	0.0122503
0.0482438	0.0127066
0.0477972	0.0111072
0.044205	0.0123763
0.0450441	0.0114259
0.0482014	0.0107858
0.111264	0.0107141
0.0536719	0.0108552
0.125311	0.0110179
0.11938	0.00958658
0.122385	0.00980981
0.130103	0.012522
0.12842	0.0242487
0.123824	0.0432086
0.122279	0.0109495
0.119001	0.0458841
0.107556	0.0715402
0.0884885	0.0579829
0.0670832	0.0516532
0.0664135	0.0275416
0.0860307	0.0443815
0.0829184	0.0216863
0.0656025	0.0419221
0.0570302	0.0301581
0.0575521	0.0306637
0.0602938	0.0303494
0.062725	0.0190441
0.0590552	0.0342392
0.0533548	0.0177037
0.0556886	0.0274813
0.113335	0.0229341
0.0733061	0.0176518
0.128646	0.0204816
0.112965	0.0176898
0.0950175	0.0278309
0.0907621	0.0157794
0.088787	0.0253621
0.092882	0.0151368
0.0902852	0.0262612
0.0726951	0.0168973
0.056391	0.0208279
0.067798	0.0169008
0.0656037	0.0172823
0.0687231	0.0171834
0.0683927	0.01809
0.0535053	0.0155783
0.0571619	0.0161684
0.0609885	0.0164106
0.0534194	0.0156683
0.0606683	0.0156281
0.0692686	0.0142115
0.0531488	0.0148962
0.0554058	0.0138484
0.0693419	0.0161718
0.0618971	0.013344
0.0784516	0.0152714
0.0546279	0.0120195
0.0740197	0.0147461
0.0736943	0.0125846
0.0493487	0.0121838
0.054713	0.0125201
0.063578	0.011753
0.0585203	0.0143235
0.0524105	0.0120112
0.0505446	0.0118594
0.0547414	0.0150685
0.055084	0.0122084
0.0519774	0.0104756
0.0467995	0.0106612
0.0484794	0.00998667
0.0525519	0.0108078
0.0545751	0.0109987
0.0871607	0.0099968
0.0632549	0.00946674
0.0562071	0.00913259
0.0537248	0.00932839
0.0526078	0.00904308
0.0510898	0.00927352
0.0566217	0.00911435
0.0454268	0.00955139
0.0488681	0.0104577
0.0500775	0.0191446
0.0404787	0.0484754
0.0489915	0.050271
0.0508543	0.0146229
0.0412239	0.108429
0.0405096	0.0310349
0.0406962	0.0306936
0.0731408	0.0652749
0.0506426	0.025695
0.0712521	0.0365957
0.0716181	0.0442087
0.0459412	0.0309792
0.0659016	0.0492877
0.0611366	0.0522723
0.0501602	0.0211889
0.0453779	0.0445355
0.053178	0.0241147
0.0410634	0.0293502
0.0601184	0.0371538
0.0683686	0.0166615
0.0449445	0.0363235
0.0598317	0.0232146
0.049124	0.0206376
0.0571307	0.0309228
0.0536871	0.0179948
0.0437585	0.0255184
0.0494588	0.0286662
0.0416764	0.0196462
0.048393	0.0304712
0.0402637	0.0191676
0.040498	0.0229536
0.039259	0.0231338
0.0383416	0.0177933
0.0392223	0.0227537
0.0360229	0.0209062
0.0360669	0.0169741
0.0397743	0.0204285
0.0361036	0.0192711
0.0341813	0.0180356
0.0362912	0.0181999
0.0311585	0.0155097
0.0433376	0.0164754
0.0630337	0.0170123
0.0328566	0.0147091
0.0505356	0.0167466
0.0430926	0.014976
0.0437919	0.014587
0.042434	0.0137014
0.0358882	0.0133736
0.0422571	0.0151367
0.046425	0.0130104
0.0436898	0.0132828
0.0396787	0.0126118
0.0393925	0.0128544
0.033734	0.0123152
0.0424031	0.0126576
0.0320218	0.0121175
0.0399324	0.0118775
0.0374236	0.0116789
0.0467825	0.0112038
0.046135	0.0111419
0.0316748	0.0118125
0.043192	0.0111969
0.0308702	0.0107984
0.0417365	0.0104332
0.0318686	0.0100038
0.0336221	0.0107556
0.0314359	0.0106772
0.0412952	0.0101219
0.0440648	0.0095521
0.0558558	0.0105673
0.0477313	0.0100292
0.0554008	0.00952904
0.0462485	0.00877896
0.0513333	0.00841915
0.0464736	0.00906789
0.0462237	0.0104727
0.0513155	0.0093697
0.0397928	0.0089382
0.0549433	0.0095389
0.0314896	0.00954937
0.0511831	0.00820148
0.0306887	0.0077362
0.0456871	0.00761397
0.0344866	0.00774393
0.0551066	0.00873097
0.0387268	0.0104883
0.0583652	0.0173811
0.0469443	0.0386845
0.0462109	0.0246592
0.0590808	0.0184977
0.0458199	0.0104127
0.0489726	0.0322897
0.0459151	0.0146245
0.0405477	0.00841677
0.0460889	0.0143082
0.0365838	0.0148329
0.0435865	0.0174701
0.0330123	0.0152443
0.0508935	0.011512
0.0355977	0.016667
0.0453917	0.0141831
0.0339295	0.0208941
0.0436113	0.0248686
0.0346739	0.0325611
0.0395728	0.0461759
0.0345372	0.0127719
0.0343712	0.0506103
0.0488217	0.0148546
0.0343891	0.0402909
0.0405397	0.0305939
0.0349595	0.0457446
0.0375749	0.0141343
0.0384691	0.0464334
0.0349399	0.0284934
0.0364182	0.0427945
0.0323982	0.021848
0.0375745	0.0506966
0.0392597	0.0408112
0.0287643	0.0270881
0.0387588	0.0273863
0.0390735	0.0433752
0.0413822	0.0224131
0.0305731	0.0299736
0.0406797	0.0186721
0.0288766	0.0230792
0.0364876	0.0241178
0.0329879	0.0246891
0.0304937	0.015769
0.0326574	0.0141657
0.0426005	0.0168394
0.0352969	0.0151036
0.0341015	0.0163209
0.0393114	0.0166995
0.0285462	0.0178689
0.0416452	0.0139092
0.0360043	0.0149075
0.032435	0.0136658
0.0303131	0.0155942
0.0335695	0.0131857
0.0282999	0.0149811
0.0445388	0.0135246
0.0490967	0.015523
0.0349952	0.0142995
0.0499687	0.0128655
0.0454862	0.0129238
0.0367497	0.0126615
0.0409674	0.0137524
0.0330401	0.0129204
0.0339198	0.013
0.0405637	0.0131613
0.0615896	0.0118445
0.0934667	0.0130958
0.0577249	0.0123187
0.0654064	0.010998
0.0832883	0.0134762
0.0829888	0.011953
0.0686136	0.0105437
0.0577713	0.0114271
0.0613466	0.00997337
0.0611829	0.0102496
0.0497229	0.00999512
0.068265	0.00965158
0.0642013	0.00984562
0.0763221	0.00951507
0.070218	0.00930833
0.0527982	0.0110216
0.0612729	0.010244
0.0490982	0.00888041
0.0583379	0.0104242
0.0520384	0.00975305
0.0489281	0.00892433
0.0497844	0.0092771
0.0452575	0.00887652
0.0461043	0.00820917
0.0503881	0.0106342
0.0445259	0.0122193
0.0495464	0.010621
0.0465972	0.00890491
0.0437718	0.00774471
0.043271	0.00743449
0.0459639	0.00793381
0.0420913	0.00846379
0.0422041	0.00787795
0.0439199	0.00768263
0.0405802	0.00778197
0.0390115	0.00715785
0.0405733	0.0070546
0.0378764	0.0077448
0.037655	0.00733055
0.0374096	0.00704292
0.0353219	0.00860137
0.0350682	0.00772123
0.0331472	0.00694732
0.0334999	0.00726185
0.0354013	0.00608413
0.0450945	0.00665261
0.0399129	0.00719944
0.0400878	0.00683557
0.0371684	0.00602857
0.0371814	0.00623999
0.0290344	0.00621352
0.0367236	0.0067873
0.0436763	0.00638612
0.033925	0.00577371
0.0524626	0.00580615
0.0333608	0.00639222
0.0687973	0.0073294
0.042634	0.00748432
0.0611014	0.00711074
0.062728	0.00850837
0.0431193	0.0295596
0.0472756	0.124717
0.0561404	0.118547
0.0400085	0.100959
0.0470976	0.0671174
0.049088	0.122367
0.0507296	0.0890268
0.0330196	0.103751
0.0487478	0.0737117
0.0381168	0.0643206
0.0382543	0.0781808
0.0401382	0.0770071
0.0367773	0.018515
0.0369258	0.0409651
0.0345245	0.0336641
0.0379382	0.0544493
0.0317281	0.0288991
0.0326319	0.0246204
0.0356903	0.018713
0.0312408	0.0241656
0.0297125	0.0273827
0.0334311	0.0197447
0.0283973	0.0224845
0.0297151	0.0170701
0.0283375	0.0225864
0.0270891	0.0191261
0.0251028	0.0210955
0.0283387	0.0163654
0.0250876	0.0182115
0.0236325	0.0161993
0.0274239	0.0179192
0.0302771	0.0171755
0.0312975	0.0178025
0.025099	0.0154903
0.0233234	0.0151549
0.0216873	0.0151084
0.0212015	0.0163153
0.0221904	0.0140625
0.0259568	0.0154316
0.0513426	0.0141966
0.0351282	0.0166432
0.0275166	0.0135802
0.0325867	0.0159177
0.0336034	0.0140291
0.025954	0.0142062
0.0336392	0.0139448
0.0253455	0.013613
0.024672	0.0157001
0.0412479	0.0121991
0.0277314	0.0150605
0.0444201	0.0116319
0.0632172	0.01214
0.0365256	0.0116827
0.0416377	0.014151
0.037561	0.0115862
0.0371098	0.0118779
0.0349962	0.0126575
0.0353925	0.0111979
0.032257	0.0117361
0.0258176	0.0108577
0.0267565	0.0115399
0.0426716	0.0119389
0.036961	0.010427
0.0262632	0.0121007
0.0306413	0.0107454
0.0479716	0.0100172
0.0260419	0.011704
0.0287402	0.0101239
0.0378718	0.00951792
0.0596372	0.00947237
0.0307947	0.00935266
0.0798146	0.00922662
0.0467438	0.00889949
0.0577256	0.00931637
0.0541297	0.00931028
0.0591605	0.00903591
0.0552176	0.00900089
0.0380962	0.00883519
0.0568356	0.00936917
0.0353953	0.00871945
0.0614868	0.00866727
0.0360985	0.00895687
0.0455289	0.00798436
0.0358848	0.0082955
0.0444531	0.00813186
0.0348394	0.00793051
0.0346886	0.00817955
0.030771	0.00796202
0.029665	0.00782814
0.0343577	0.00842063
0.0557403	0.00870577
0.055681	0.0074306
0.0352392	0.00788784
0.0822806	0.00836241
0.0670437	0.00869308
0.0352736	0.00839289
0.062044	0.0070754
0.0398019	0.00811381
0.0469471	0.00758577
0.0474253	0.00722803
0.0317735	0.0082432
0.0423853	0.00705573
0.0439487	0.00807551
0.0359331	0.00882168
0.037037	0.00752374
0.0373866	0.00728018
0.0327836	0.0103431
0.0337243	0.0129295
0.0363023	0.0181495
0.0313099	0.0241872
0.029566	0.0190268
0.033545	0.0115238
0.0305146	0.00845118
0.0295559	0.0113238
0.0295074	0.00873908
0.0286662	0.00831863
0.0372515	0.0126123
0.0344524	0.0164151
0.026796	0.0203526
0.0321642	0.00731639
0.0275159	0.0140603
0.0298656	0.0106956
0.0257385	0.00708398
0.02716	0.00942648
0.0266026	0.0102657
0.0255967	0.00775662
0.0245792	0.0106028
0.0251947	0.0150458
0.0272285	0.026878
0.0346424	0.0339942
0.0270755	0.00850485
0.0223763	0.0277438
0.022855	0.0289627
0.0222911	0.0175121
0.0315825	0.00747112
0.0365751	0.0125593
0.0694537	0.0106426
0.0346648	0.00899434
0.0474146	0.0177396
0.0457937	0.0178117
0.0347804	0.00888102
0.0659872	0.0119968
0.0323557	0.0127506
0.0483485	0.00722056
0.0456812	0.0128064
0.0323271	0.0106007
0.0411414	0.00795473
0.0340063	0.010963
0.0340842	0.00759123
0.032821	0.0135149
0.0289892	0.0103095
0.0336948	0.0089461
0.0306508	0.0176595
0.0323154	0.0102625
0.0269684	0.00842439
0.0272257	0.0104763
0.0322689	0.00732857
0.0291585	0.0085972
0.0255667	0.00687797
0.0289845	0.00920587
0.0259988	0.00805974
0.0245458	0.00777449
0.0229963	0.00678406
0.0278198	0.0072479
0.0303182	0.00736974
0.0260084	0.00702971
0.0358246	0.00752949
0.0292353	0.0064181
0.0281928	0.00698429
0.0294167	0.00677589
0.0260708	0.00675252
0.0234846	0.00638305
0.0327372	0.0061122
0.0614463	0.00614152
0.0402598	0.00712612
0.0508386	0.00613513
0.0454754	0.00668539
0.0418097	0.0068051
0.0464039	0.0057023
0.044991	0.00579395
0.0377168	0.00659725
0.0385434	0.00654331
0.0322346	0.00570933
0.0476135	0.00707198
0.0336928	0.00658729
0.0404498	0.00654885
0.0261089	0.00744697
0.0408694	0.00542459
0.0254603	0.00804128
0.0320776	0.00824566
0.0361862	0.00512719
0.0364445	0.0113408
0.0373939	0.0169119
0.0245448	0.0199561
0.0311734	0.0128398
0.030929	0.00608481
0.0254366	0.013075
0.029893	0.0369462
0.0283377	0.0160967
0.0245775	0.00569354
0.0291418	0.0124191
0.0301582	0.0124042
0.0253255	0.00599122
0.0250857	0.0129345
0.0223085	0.0253554
0.0219755	0.046292
0.0215238	0.0395338
0.021122	0.0100025
0.0350464	0.0126306
0.140683	0.0223197
0.111909	0.00807074
0.104345	0.0175041
0.0982482	0.0209972
0.102377	0.00711639
0.11609	0.0218854
0.124262	0.0290555
0.11026	0.00698935
0.0912795	0.0351333
0.0731798	0.0889663
0.0729026	0.00874899
0.0887135	0.0893704
0.0512777	0.057413
0.058484	0.0904622
0.0997717	0.116783
0.0870332	0.140574
0.103286	0.0396624
0.089257	0.0942008
0.0747653	0.0383639
0.077648	0.0278954
0.0718439	0.0421717
0.079184	0.0268853
0.0692108	0.0476552
0.0746775	0.0217129
0.0613114	0.0263846
0.0794444	0.0344858
0.059155	0.0165075
0.102209	0.0251539
0.09662	0.0276803
0.0655943	0.0208011
0.0873985	0.0243395
0.0935504	0.0249414
0.0801847	0.0168383
0.0671939	0.0199306
0.0761779	0.0208874
0.0778897	0.0204811
0.0679339	0.0183847
0.0634421	0.0183891
0.0686513	0.0188619
0.0652616	0.016508
0.060148	0.0179703
0.0629641	0.0149774
0.0666286	0.0160675
0.0614314	0.0138052
0.0579962	0.0149611
0.0571595	0.0128789
0.0582753	0.0124703
0.0525991	0.0129155
0.0516117	0.012272
0.0532579	0.0130689
0.0491194	0.0119793
0.0480852	0.0115213
0.0460194	0.0119969
0.0475172	0.0108696
0.0418759	0.0115736
0.0421828	0.0102324
0.0653476	0.0108572
0.0411813	0.0100904
0.0365971	0.0103826
0.0378264	0.00973939
0.0385965	0.0105971
0.0619558	0.00931853
0.0440565	0.00964294
0.0333373	0.00930834
0.0364445	0.00888848
0.0495703	0.00926251
0.0391581	0.00864255
0.0620178	0.00891689
0.0413926	0.00852663
0.0559782	0.00875937
0.035252	0.00845544
0.0807807	0.0082236
0.0477853	0.0082572
0.0626365	0.00815438
0.0735412	0.00807124
0.074714	0.0078313
0.0554348	0.00792271
0.0574104	0.00773847
0.084824	0.00788842
0.0819814	0.00752945
0.0797196	0.00799862
0.074434	0.00723426
0.0735642	0.00815146
0.0773951	0.00740575
0.0613234	0.00702574
0.0718819	0.00769773
0.0588417	0.00738321
0.0724578	0.00750868
0.0599298	0.00769733
0.0553236	0.00676392
0.0645401	0.00780644
0.0571297	0.00693171
0.0536742	0.00716885
0.0534015	0.00705761
0.0545847	0.00655732
0.0550732	0.00725291
0.0522654	0.00695064
0.0468442	0.00659878
0.0518381	0.00662015
0.0456509	0.00656575
0.0437644	0.00648727
0.046425	0.00687435
0.0404209	0.00657146
0.0423207	0.00633669
0.0395653	0.00643446
0.0354554	0.00628582
0.0367311	0.00613086
0.0339892	0.00669656
0.0764205	0.00610507
0.0519547	0.00698311
0.0439708	0.00591546
0.0771614	0.0077801
0.039039	0.00615035
0.0357656	0.00691542
0.0357603	0.00918578
0.0347144	0.00597112
0.033197	0.00902586
0.0326378	0.00758608
0.0318483	0.00599778
0.0392124	0.0112501
0.0943515	0.0122703
0.0325977	0.0065512
0.0875516	0.0131352
0.0683731	0.018833
0.0530922	0.00956104
0.0816617	0.0103204
0.0676151	0.0135814
0.0651438	0.00644133
0.0781473	0.0100753
0.0708409	0.00697872
0.0559548	0.0095171
0.0494345	0.00640992
0.0618587	0.00873402
0.0680254	0.00727914
0.0496586	0.00694503
0.0606186	0.00778167
0.0501211	0.00597246
0.0590268	0.00786128
0.0466892	0.00704963
0.0536734	0.00594235
0.0498922	0.00722056
0.0510569	0.00557029
0.0441587	0.00703144
0.0456082	0.00592215
0.0475093	0.00632294
0.0413668	0.0055188
0.0419117	0.00906183
0.0409888	0.00641151
0.0388436	0.00921299
0.041004	0.00880256
0.034552	0.0057005
0.0398406	0.0110289
0.0332168	0.00674977
0.0433405	0.0092991
0.0327578	0.0143657
0.0348046	0.00504585
0.0349416	0.0161339
0.0484046	0.0219376
0.0332496	0.00545786
0.0351387	0.0172233
0.0292483	0.00891012
0.0331318	0.0123836
0.0483612	0.0133857
0.0404541	0.0057291
0.029929	0.0142175
0.0274969	0.00712307
0.0269269	0.00942389
0.0274594	0.00675829
0.0296348	0.0111399
0.0299015	0.0167286
0.0339633	0.00580255
0.0283199	0.0149036
0.0286422	0.0163462
0.0293872	0.00559595
0.0406646	0.0104194
0.0349567	0.00546396
0.0478455	0.0101167
0.0497056	0.00559531
0.0316627	0.0130112
0.0679174	0.00866963
0.0369493	0.012193
0.0792515	0.021598
0.0370442	0.00756173
0.118122	0.0194472
0.134898	0.00660987
0.0822242	0.0131702
0.104098	0.00605927
0.0802657	0.0196416
0.0930667	0.0240036
0.0524311	0.00735637
0.0781782	0.0145826
0.0879437	0.00675766
0.087322	0.0164865
0.0816541	0.00575221
0.0570022	0.0183159
0.0663604	0.00973642
0.048931	0.014292
0.0635253	0.00968799
0.0526683	0.0145094
0.0575221	0.0105738
0.0559788	0.00937253
0.0475507	0.00842314
0.0571303	0.0131642
0.0484077	0.0140821
0.0503192	0.0101576
0.0567735	0.00870078
0.0444421	0.0146217
0.0558084	0.012201
0.0456922	0.0107816
0.0462661	0.0085974
0.0535669	0.0114873
0.0424412	0.0129363
0.0468999	0.00781215
0.0476551	0.0109806
0.0377196	0.00749368
0.0465459	0.00717827
0.0380528	0.00695688
0.037929	0.00587953
0.0420466	0.0106646
0.0348455	0.00585085
0.038697	0.011756
0.0321978	0.00610806
0.0359594	0.016458
0.0397277	0.0130813
0.067171	0.00818626
0.0394037	0.00688637
0.0626862	0.0145362
0.0399109	0.0124159
0.0386125	0.00654476
0.0504288	0.0148527
0.0422951	0.00545153
0.0352967	0.020513
0.0418476	0.0110987
0.0318706	0.0102776
0.0417009	0.0111508
0.0343661	0.00650348
0.0411475	0.0135307
0.0351133	0.00753542
0.0339092	0.007558
0.0351503	0.00570898
0.0307824	0.00875008
0.0314228	0.00599415
0.0290219	0.0076225
0.0326403	0.0080967
0.027863	0.00647939
0.0294547	0.00617914
0.0324825	0.00580648
0.0707947	0.00801325
0.0283113	0.00543176
0.0590539	0.00755383
0.0447717	0.00533602
0.0602466	0.00585863
0.0479966	0.00523949
0.0631137	0.00573288
0.0709967	0.00573455
0.0590056	0.00516223
0.0453299	0.00594632
0.0649134	0.00597612
0.0411836	0.00528514
0.0579341	0.00539082
0.0371663	0.0051879
0.0522866	0.00535714
0.0409771	0.00523986
0.0453176	0.0050518
0.0460381	0.00504822
0.0345182	0.00479446
0.0459462	0.00485564
0.0343206	0.00476185
0.0415503	0.00462571
0.0373222	0.00505749
0.0392528	0.00483781
0.0425838	0.00443878
0.0380149	0.00472823
0.0530224	0.00462288
0.0488435	0.00505777
0.0462427	0.00454215
0.0373464	0.00452764
0.0491317	0.00481865
0.0328581	0.0048127
0.0473831	0.0049201
0.0428867	0.0051169
0.0361478	0.00431915
0.0404346	0.0065409
0.0373458	0.0042015
0.0382231	0.00495871
0.0388719	0.00506954
0.0337367	0.00458846
0.0393844	0.00599076
0.0354598	0.00439457
0.0337469	0.0056774
0.0364642	0.0040984
0.0322354	0.00616743
0.0333268	0.00442456
0.0338555	0.00626597
0.030086	0.00471537
0.0324643	0.00563502
0.0286907	0.00404812
0.0335082	0.00599507
0.0306668	0.00462771
0.0276396	0.00513917
0.0351218	0.00431769
0.0308966	0.00425892
0.0252158	0.00548517
0.0364611	0.00416011
0.0382745	0.0059193
0.0281155	0.00405184
0.030284	0.00522709
0.0525761	0.00440696
0.0259019	0.0055397
0.0607712	0.00381074
0.0415471	0.00389435
0.0571472	0.00532311
0.0560194	0.0042197
0.0352155	0.00378669
0.0537667	0.00395301
0.0460388	0.00398639
0.0408652	0.0042169
0.0406532	0.00414095
0.0483803	0.00416445
0.0379524	0.00392215
0.0351648	0.00405508
0.0448261	0.0039822
0.0388929	0.00400508
0.0367111	0.00425625
0.0382545	0.00361821
0.0381181	0.0041802
0.036971	0.00400797
0.0328389	0.00371338
0.0348768	0.00407977
0.0349889	0.00421188
0.0309098	0.00410271
0.0328164	0.00407343
0.030945	0.00378515
0.0283617	0.00414445
0.0334737	0.00355625
0.0290734	0.00376181
0.0301432	0.00373798
0.0258468	0.00457267
0.0267858	0.00387767
0.0245883	0.00651698
0.0287181	0.00898411
0.0345308	0.0142468
0.0426651	0.0100963
0.0287188	0.00685989
0.0285796	0.0235913
0.0476909	0.107633
0.0224961	0.0980349
0.0220917	0.0688039
0.0402306	0.123025
0.0262437	0.0706616
0.0265114	0.0648505
0.0650171	0.0678326
0.0384271	0.133333
0.0620286	0.0686536
0.0635698	0.035269
0.0351167	0.102623
0.0395295	0.0451733
0.0400521	0.0567681
0.0229304	0.0562034
0.0460873	0.0507671
0.0278106	0.03318
0.0638075	0.0246186
0.0341599	0.0320776
0.0648679	0.0367415
0.074373	0.0308057
0.0567708	0.0282031
0.0363593	0.0242081
0.0595798	0.0181889
0.0480889	0.0164571
0.0512261	0.0172168
0.0334109	0.0202466
0.0525923	0.0196992
0.0277961	0.0205958
0.0498743	0.0200616
0.0286882	0.0168782
0.0402648	0.0158192
0.0343171	0.0165735
0.036151	0.0183289
0.0349251	0.0167923
0.0348415	0.01445
0.0360535	0.0137512
0.0326768	0.0140279
0.0318666	0.0150461
0.0337772	0.0147225
0.0303693	0.0144873
0.0309809	0.0129736
0.0260862	0.0120035
0.0299019	0.0119246
0.0280675	0.0120704
0.0309091	0.0119745
0.0269415	0.0123886
0.0337964	0.0115926
0.0246187	0.0111127
0.0332157	0.0107014
0.0299506	0.0105557
0.0242614	0.0104729
0.0385009	0.0101831
0.0286305	0.0100298
0.0318241	0.010134
0.0243233	0.00995814
0.0475534	0.00972713
0.0296	0.00965943
0.0421389	0.00965208
0.0499194	0.00951456
0.0329218	0.00968735
0.060683	0.00957362
0.0580085	0.00909083
0.0251649	0.00908241
0.0602453	0.00959627
0.0343713	0.00880112
0.0457203	0.0106391
0.0553683	0.017296
0.0395273	0.00979484
0.0371118	0.00840336
0.0475436	0.00880471
0.033426	0.00866053
0.0338286	0.00843357
0.0420143	0.00792525
0.0316642	0.00958444
0.0351634	0.00763128
0.0355104	0.00773838
0.0369626	0.00744985
0.0314258	0.00782041
0.0323266	0.00712895
0.036934	0.00730968
0.0303053	0.00704449
0.0289616	0.0069317
0.033308	0.0068633
0.0295399	0.00681407
0.0263834	0.00686203
0.0275556	0.00677018
0.0262672	0.00669115
0.0289477	0.00662558
0.0286563	0.00652546
0.0286833	0.00633965
0.0345771	0.00651453
0.0289882	0.00649845
0.0322686	0.00619822
0.0310066	0.00661224
0.0296772	0.00684077
0.0452441	0.00612609
0.0320741	0.00611927
0.0275433	0.00616245
0.031642	0.00602703
0.0302755	0.00594348
0.0271379	0.00593548
0.0323552	0.0060413
0.0324887	0.00574902
0.0227124	0.00572119
0.0324297	0.00589535
0.0292915	0.00609462
0.0199137	0.00654997
0.0273314	0.00596295
0.0307661	0.00601797
0.0197752	0.00697521
0.022356	0.00631661
0.0318035	0.00706763
0.0189777	0.00631404
0.0248186	0.00660402
0.0411225	0.00617476
0.0402766	0.00573602
0.0394274	0.00553222
0.0395166	0.00533959
0.0379566	0.00649931
0.0319282	0.0100208
0.0446435	0.0298217
0.0375868	0.0551597
0.0224914	0.040771
0.0462191	0.0370096
0.0323591	0.0162811
0.0373645	0.0573591
0.0470338	0.0252009
0.0496807	0.0326917
0.0284433	0.0411049
0.0399269	0.0564401
0.0391268	0.0566793
0.0331473	0.0559466
0.0438096	0.0442456
0.0346124	0.0338306
0.0298343	0.0289658
0.0346887	0.0313336
0.0312264	0.0215568
0.0394099	0.0198147
0.030877	0.0175704
0.0426931	0.0182871
0.0343329	0.019882
0.0361001	0.0167929
0.0335145	0.0177488
0.040128	0.0185774
0.0388523	0.0159092
0.0346164	0.0138091
0.0333042	0.0230337
0.0400377	0.017009
0.0267439	0.0120802
0.0359875	0.0134993
0.0270033	0.0112811
0.0297133	0.0101289
0.033767	0.0103883
0.0250297	0.0116094
0.0316743	0.0107254
0.0266336	0.0116421
0.0318998	0.0108108
0.0225607	0.0100175
0.0297087	0.0103658
0.0237038	0.00821394
0.0309404	0.00869611
0.0214435	0.00805743
0.0245828	0.00796498
0.0214373	0.00772609
0.0216526	0.00735838
0.0252666	0.00754133
0.0207565	0.00732747
0.0332185	0.00740153
0.0355314	0.00744506
0.0243387	0.00702886
0.056147	0.00682599
0.0350873	0.00701259
0.0687106	0.00678862
0.0586905	0.00676535
0.0332524	0.00659051
0.0515776	0.00653989
0.0394126	0.00609366
0.0314418	0.00674711
0.04383	0.00600267
0.0413328	0.00695578
0.0306762	0.00593694
0.0348957	0.00644482
0.0392126	0.00579679
0.0306904	0.0056893
0.0331306	0.00575854
0.036512	0.00578374
0.0316985	0.00581454
0.0287661	0.00591252
0.0342809	0.00581338
0.0359318	0.00549796
0.0290309	0.00528277
0.0266383	0.00535185
0.0293248	0.0052767
0.0281257	0.00534761
0.0252773	0.00540896
0.0265606	0.00503413
0.0239392	0.00511174
0.0231524	0.00538539
0.024391	0.00518201
0.0213737	0.00503553
0.0278945	0.00490651
0.0479931	0.00497253
0.0718984	0.00563865
0.0508159	0.00489296
0.0296006	0.006897
0.0445451	0.00815049
0.041476	0.00501835
0.0249213	0.0104955
0.0447988	0.0260574
0.0222423	0.0611066
0.0319238	0.0110365
0.047951	0.0412545
0.023586	0.0617748
0.0485117	0.0216639
0.0463763	0.00820621
0.0282172	0.0194125
0.0449895	0.0126304
0.0344513	0.00766574
0.0342615	0.0121898
0.042565	0.00964085
0.0388377	0.0112719
0.0420194	0.00787814
0.0214931	0.00761716
0.0271335	0.00976722
0.0248259	0.00853202
0.0317528	0.0110378
0.0241312	0.00875119
0.0377178	0.00880186
0.0325071	0.0136463
0.0219269	0.00602454
0.0203747	0.00853175
0.0230862	0.0082184
0.0201295	0.0159242
0.0189705	0.00955511
0.0182597	0.0103222
0.017795	0.0107837
0.0200339	0.00722777
0.0327286	0.00866283
0.0557678	0.0058024
0.0172149	0.0062568
0.0525531	0.00601531
0.0180715	0.00562662
0.0411966	0.00661334
0.022482	0.0061001
0.0243961	0.00586898
0.030159	0.00604052
0.0208353	0.00552833
0.0303736	0.00609065
0.0202156	0.00560231
0.0255757	0.00546799
0.0200405	0.00627847
0.0235816	0.00509624
0.0214214	0.0058634
0.0240128	0.00535209
0.0303427	0.00497706
0.0400991	0.00534196
0.0812744	0.00528494
0.0266265	0.00499127
0.0514279	0.006436
0.0311033	0.00514944
0.0401218	0.00554966
0.0376036	0.00496486
0.0424187	0.00473393
0.022643	0.00686645
0.0366306	0.00540034
0.0242903	0.00770501
0.0461382	0.00583999
0.0201397	0.0106198
0.0311148	0.0108123
0.0326884	0.00468654
0.0262405	0.00546137
0.0368007	0.00778857
0.0276736	0.0056226
0.0185417	0.0143817
0.0313944	0.0207027
0.0347215	0.00570189
0.0369541	0.0116677
0.0384818	0.00466052
0.0387319	0.011831
0.0274863	0.00511952
0.0326109	0.0210402
0.0304089	0.0154722
0.0290754	0.00482013
0.0277777	0.0133185
0.0258096	0.00578358
0.0305752	0.0189414
0.0214774	0.02528
0.0273719	0.00466881
0.0212699	0.0212557
0.025409	0.0103618
0.0209213	0.00754968
0.0239416	0.00707948
0.0208467	0.00624723
0.0245051	0.00502377
0.0187643	0.0109676
0.0220247	0.00542644
0.0206325	0.00679242
0.017545	0.00483793
0.0212652	0.00605292
0.0277132	0.00529891
0.0164062	0.00524864
0.0212408	0.00542442
0.0506699	0.00529273
0.0215969	0.00493426
0.0623474	0.0046259
0.0185285	0.00456988
0.0613826	0.00473537
0.0290715	0.00530272
0.0515006	0.00497058
0.0661004	0.00449157
0.0460129	0.00502343
0.0350916	0.00515142
0.0490506	0.0044527
0.027714	0.00462843
0.0397805	0.00449361
0.027786	0.00458383
0.0317987	0.00448338
0.0395912	0.00446521
0.0266665	0.00415343
0.0352841	0.00412482
0.0229399	0.00429114
0.0342275	0.00519071
0.0228944	0.00438679
0.0270163	0.00435546
0.0291796	0.00413579
0.0217608	0.00411708
0.0280386	0.00436465
0.0235285	0.00409947
0.0225871	0.00434881
0.0241973	0.00391492
0.0215766	0.00398991
0.0240745	0.00409103
0.0207319	0.00407422
0.0214501	0.00402981
0.0218264	0.00420294
0.0189896	0.00412832
0.0211791	0.00400357
0.0175913	0.00459082
0.0207698	0.00376026
0.023963	0.00398585
0.0415906	0.00417896
0.0731673	0.00375704
0.0349002	0.00396175
0.0648488	0.00410389
0.0370018	0.00392986
0.0609214	0.00377074
0.0339668	0.00463542
0.043399	0.00380672
0.0506159	0.00441595
0.0236977	0.00363145
0.040104	0.00386059
0.0240631	0.0038166
0.0445408	0.0041707
0.0232662	0.00388452
0.0332719	0.00368057
0.0265172	0.00522658
0.0370148	0.00400167
0.0442186	0.0044957
0.0192905	0.00386755
0.0343729	0.00427856
0.0325555	0.0034458
0.0549143	0.00363342
0.0495255	0.00454481
0.0402203	0.00407763
0.0321194	0.00458817
0.0697707	0.00421813
0.0386986	0.00615098
0.0476296	0.00594425
0.0625251	0.00401323
0.0517415	0.0035277
0.0373551	0.00705791
0.0495647	0.00462644
0.0374686	0.00763174
0.0304862	0.00997863
0.0488975	0.00593789
0.0234197	0.00847599
0.0433394	0.00399145
0.0253812	0.0131757
0.0331904	0.0550032
0.0322267	0.150841
0.0256596	0.126092
0.0308555	0.108025
0.0273858	0.110571
0.0253558	0.0658149
0.0280875	0.104674
0.0232436	0.0374833
0.0292189	0.0900851
0.0211034	0.0168638
0.0273726	0.0590829
0.0207605	0.0123257
0.0244477	0.0153474
0.0223803	0.0351903
0.0216499	0.0121879
0.0218502	0.0121408
0.0196258	0.0182277
0.0210628	0.0167359
0.0186476	0.0119203
0.0184382	0.0125004
0.0198285	0.0158232
0.0162936	0.0124196
0.0193524	0.0098717
0.0175606	0.012141
0.0170197	0.0130178
0.0303735	0.00962846
0.060597	0.00939679
0.0213922	0.0102821
0.0747577	0.012016
0.0531035	0.00892102
0.0554956	0.00821955
0.0607858	0.00962594
0.0625269	0.0086149
0.0378034	0.00844796
0.0413933	0.00951317
0.029843	0.00892663
0.0637062	0.0101076
0.0435102	0.00869366
0.0294324	0.00808318
0.0431179	0.00826899
0.0305477	0.00771143
0.0471188	0.00784646
0.0299057	0.00779537
0.035255	0.0075741
0.0417456	0.00764872
0.0325758	0.00774964
0.0393703	0.00742023
0.0285631	0.00755186
0.0321885	0.00699537
0.0327377	0.00718094
0.0266846	0.00694479
0.0297343	0.00684774
0.0221993	0.00670285
0.0280259	0.00687989
0.0247224	0.00664386
0.0224754	0.00656954
0.0236432	0.00655674
0.0198234	0.00692522
0.0226652	0.00625217
0.0204645	0.00628632
0.0209225	0.0062825
0.0186096	0.00653159
0.0191718	0.00634215
0.023067	0.00609141
0.045462	0.00692466
0.0288892	0.00635875
0.0221913	0.00643259
0.0185894	0.00622868
0.0175717	0.00618622
0.015932	0.0065419
0.0164756	0.00615736
0.0211637	0.0070769
0.0238316	0.00568506
0.0375785	0.0133423
0.0210612	0.0137543
0.0149224	0.00556957
0.0180291	0.0205546
0.0230566	0.0194974
0.0149367	0.0183872
0.0320553	0.0231114
0.113741	0.0117123
0.0667782	0.0310778
0.0852594	0.0220535
0.0854669	0.0277183
0.0832419	0.00818801
0.0863425	0.00896852
0.0888893	0.0173205
0.0787128	0.0086739
0.0584535	0.00829875
0.0415389	0.00977068
0.0393957	0.0135545
0.0689058	0.00576559
0.0436526	0.00988802
0.043571	0.00750725
0.0364987	0.0081444
0.0265309	0.00569189
0.0293867	0.00683951
0.034441	0.00758891
0.032969	0.00595576
0.0309767	0.00566465
0.0256347	0.00607803
0.0287829	0.00597411
0.0290584	0.00677566
0.0286428	0.00590042
0.0270788	0.00554472
0.0233341	0.00543295
0.0243542	0.00587328
0.0236536	0.00597715
0.0229182	0.00564953
0.0384869	0.00559928
0.0422581	0.0053707
0.0273404	0.00536726
0.0672928	0.00587356
0.0218275	0.00522476
0.0332915	0.00610796
0.0261483	0.00533652
0.0220973	0.00662118
0.0343447	0.00584629
0.0264069	0.00606087
0.0274579	0.00499467
0.0228725	0.00544728
0.0298232	0.00515829
0.0417872	0.00508245
0.0252264	0.00485867
0.0364283	0.00533067
0.0284563	0.00513704
0.030225	0.00481352
0.0237849	0.00540517
0.0397512	0.00523343
0.0184723	0.00485799
0.0348046	0.0068551
0.0188783	0.00469976
0.0318707	0.0116503
0.0209246	0.00565456
0.0302907	0.0171795
0.0214517	0.00968096
0.0264856	0.0149877
0.0249025	0.00749951
0.0256263	0.0195649
0.0174872	0.0113977
0.0205049	0.0127941
0.0170864	0.00870519
0.0193843	0.0173093
0.0162761	0.00749878
0.0201036	0.0242182
0.0351015	0.00520189
0.0442456	0.0207051
0.0492221	0.00982361
0.0318613	0.0229439
0.0431936	0.0230867
0.034464	0.00941322
0.0368427	0.014638
0.0368496	0.0110197
0.0345672	0.0092571
0.0319555	0.0165118
0.0347533	0.00642359
0.0233922	0.0232091
0.0331731	0.00825196
0.0193601	0.024247
0.0287813	0.00914861
0.0203762	0.0331951
0.0221249	0.0109052
0.0206997	0.0227174
0.0201572	0.0138165
0.0221755	0.0203758
0.0199711	0.0082179
0.0274356	0.0256001
0.0289506	0.00569072
0.0246291	0.0330592
0.0244113	0.00538127
0.019714	0.0234139
0.0253826	0.00598443
0.0185931	0.0169723
0.0201836	0.00752977
0.0213669	0.0107561
0.0173707	0.00652154
0.0193423	0.00607898
0.0180627	0.00731999
0.0169166	0.00590441
0.0165873	0.00878942
0.0172403	0.00543436
0.0169087	0.00577892
0.0147623	0.00642372
0.0154631	0.00535509
0.0176835	0.00581082
0.0168888	0.00603825
0.0257208	0.00562801
0.0322105	0.00572886
0.02603	0.00513532
0.0191049	0.00506165
0.0203718	0.005167
0.0222188	0.00522101
0.080183	0.00508273
0.0247947	0.00483211
0.0227895	0.00508865
0.0369667	0.00479297
0.019616	0.0050327
0.034964	0.00486909
0.0241321	0.00477894
0.032056	0.00480798
0.0240207	0.00491559
0.0264465	0.00481818
0.0253232	0.0051694
0.0265432	0.00465774
0.0298491	0.00461649
0.0286183	0.00446642
0.0494844	0.00441297
0.0164457	0.00440898
0.0244299	0.00463026
0.0361015	0.0043982
0.0190585	0.00443774
0.0398588	0.00432326
0.0179815	0.00440862
0.0296526	0.00423874
0.0208706	0.00427786
0.0239992	0.00428983
0.0215469	0.00423308
0.0213789	0.00432115
0.0181951	0.00427508
0.022858	0.00397115
0.0242325	0.00418231
0.0233882	0.00411913
0.0181671	0.00413025
0.0226417	0.00418638
0.0174916	0.00396277
0.0228614	0.00422709
0.0197777	0.00399204
0.0191574	0.00408728
0.0172713	0.00410687
0.0194693	0.00396523
0.0180267	0.00388782
0.0173055	0.00397277
0.0166943	0.00382951
0.0175154	0.00373205
0.0272673	0.00397743
0.0826237	0.00380624
0.114439	0.00380277
0.0552699	0.00378597
0.0752157	0.00429439
0.0958578	0.0038048
0.0863067	0.00418458
0.0852455	0.00400858
0.0873038	0.00453698
0.0800044	0.00504212
0.0602211	0.00587149
0.0480205	0.00427729
0.0296816	0.00426644
0.030366	0.00388803
0.0958231	0.00444652
0.2017	0.00362793
0.100975	0.00424441
0.139538	0.00381219
0.100412	0.00377701
0.118652	0.00376246
0.126398	0.00446307
0.131033	0.00348524
0.116848	0.00428035
0.094233	0.0039894
0.0829253	0.00389871
0.0743348	0.00376399
0.0704631	0.00363675
0.0745733	0.00353342
0.0718994	0.00453049
0.0688409	0.00360062
0.0628806	0.0034652
0.0592909	0.00377962
0.0644592	0.00414488
0.0599315	0.00348368
0.0605997	0.00399335
0.0572949	0.00355537
0.0552875	0.00355111
0.050773	0.00429034
0.0502766	0.00382334
0.0497217	0.00341714
0.0516085	0.00345606
0.0473477	0.00339039
0.0577342	0.00356921
0.0470833	0.0038722
0.0419982	0.0033327
0.0406062	0.00337211
0.0404028	0.00402145
0.0384407	0.00331388
0.036866	0.00374454
0.037433	0.00334248
0.0343491	0.0033102
0.0351801	0.0034932
0.0337015	0.00328492
0.0323423	0.00311182
0.0329042	0.00352581
0.0310397	0.00385968
0.0303837	0.00315393
0.0289631	0.0029871
0.0291999	0.00366292
0.0314423	0.00300064
0.0452806	0.00374735
0.0458294	0.0032491
0.0316621	0.00332743
0.0303017	0.00427363
0.0296002	0.00300871
0.0306495	0.00352174
0.0292934	0.00366114
0.026904	0.00394083
0.0257747	0.00306818
0.0254618	0.00344173
0.02444	0.00507068
0.0246999	0.00324002
0.0254811	0.00451865
0.025157	0.00618638
0.0247425	0.00326836
0.0274796	0.00481026
0.0387402	0.00327417
0.0298598	0.00372934
0.0232167	0.00364781
0.0214693	0.00437593
0.0213953	0.00627325
0.0220251	0.00349168
0.0247324	0.00968798
0.0280139	0.0035887
0.0240165	0.0125756
0.0236163	0.00579676
0.0300655	0.0104275
0.0272067	0.0169147
0.0215384	0.00341331
0.0219491	0.00663501
0.0327423	0.00331907
0.0511603	0.00444388
0.0202317	0.00449715
0.0238985	0.00323076
0.0463244	0.00603441
0.0358588	0.00356637
0.0486142	0.00624594
0.0201705	0.00401763
0.050664	0.00504567
0.020102	0.00360432
0.058413	0.00461291
0.0437497	0.00470325
0.0333703	0.0037297
0.0802405	0.00553945
0.0447185	0.00339034
0.0661304	0.00692856
0.0893685	0.00370062
0.066991	0.0155597
0.0811724	0.0163003
0.0844203	0.00393554
0.0669485	0.0156108
0.062699	0.0162484
0.0329853	0.00630247
0.0515591	0.120104
0.0673404	0.0804239
0.0507527	0.117695
0.0342435	0.0935975
0.0553314	0.0797687
0.0485548	0.0913157
0.040558	0.0273149
0.0457455	0.0443255
0.0447644	0.0295783
0.0376362	0.0510689
0.0369198	0.0187497
0.0428589	0.0331607
0.0366172	0.0175109
0.0319449	0.0174591
0.0367583	0.015271
0.034308	0.023405
0.0297443	0.0139686
0.0348731	0.0223196
0.0335783	0.0146729
0.0288089	0.0141571
0.0310318	0.0181586
0.0311023	0.00981889
0.0284396	0.0165685
0.0289135	0.0111234
0.0293602	0.015133
0.0276661	0.0133891
0.0265165	0.012538
0.0280002	0.0136927
0.0246224	0.0120353
0.0262773	0.0127931
0.0246204	0.0102621
0.0237548	0.0122327
0.0240401	0.0104023
0.022201	0.00914256
0.0228337	0.00926392
0.0209431	0.00850543
0.0214787	0.00900506
0.0198074	0.00816627
0.021208	0.00785061
0.0210096	0.00815211
0.0337446	0.00854016
0.0351715	0.00783873
0.0197521	0.00758742
0.0178619	0.00768819
0.0174721	0.00726989
0.017275	0.00705286
0.0173289	0.00728546
0.0199006	0.00731648
0.0364118	0.00727475
0.0217975	0.00711493
0.0187596	0.00657121
0.0241607	0.00677824
0.0286343	0.00670546
0.0184239	0.00632237
0.0169218	0.00623422
0.0206496	0.00659121
0.0221463	0.00617881
0.0162564	0.00600885
0.0184651	0.00597293
0.0208465	0.00600184
0.0169079	0.00593584
0.0190424	0.00585914
0.0169578	0.00602618
0.0233563	0.00560326
0.031092	0.0058347
0.0334142	0.00546938
0.0153799	0.00551726
0.0239599	0.00539736
0.0281715	0.00530978
0.021633	0.00521663
0.0337316	0.00512613
0.0211618	0.00526131
0.0240858	0.00511118
0.0246414	0.00501927
0.0284325	0.00511358
0.0181262	0.00493619
0.0205554	0.00494789
0.0309303	0.00489665
0.0208544	0.0046768
0.0302364	0.00482539
0.0175021	0.00472416
0.0233387	0.00466419
0.0235818	0.00458118
0.0163518	0.00475584
0.0274733	0.00468568
0.0191427	0.00450979
0.0218238	0.00450233
0.0232803	0.00446101
0.0173657	0.00456843
0.0281256	0.00467336
0.0153724	0.00436
0.0295245	0.00430878
0.015478	0.0043553
0.0305367	0.00430997
0.051092	0.0043556
0.121363	0.00442005
0.0964537	0.00411867
0.0594468	0.00420465
0.0657502	0.00418305
0.0853644	0.00422377
0.0863468	0.00421575
0.0690876	0.00419988
0.0760952	0.00418759
0.0512171	0.00411097
0.0690348	0.00411514
0.069669	0.0040548
0.0621802	0.00410437
0.0586641	0.00396133
0.0499253	0.00419124
0.0437281	0.00404576
0.0708404	0.00399218
0.0370456	0.0038226
0.0418831	0.00405827
0.0482179	0.00385568
0.0342542	0.00390758
0.0368993	0.00391112
0.0327505	0.00375014
0.0351418	0.00376719
0.0346434	0.00363993
0.0323357	0.00356907
0.0345291	0.0037516
0.0289521	0.00384537
0.0338164	0.00359062
0.0350226	0.00359252
0.0465565	0.00365206
0.0361711	0.00421098
0.0309973	0.00364015
0.0518666	0.00417805
0.0398181	0.00398288
0.0550386	0.00378534
0.0405005	0.00375144
0.0474955	0.00422132
0.0465018	0.00415634
0.0333132	0.00404061
0.0447087	0.00373395
0.0382192	0.00437197
0.0334025	0.00342196
0.0388773	0.00388528
0.0283722	0.00405402
0.0351499	0.0039675
0.0317059	0.00347219
0.0309336	0.00347182
0.0308176	0.00331833
0.0322721	0.00361217
0.0275765	0.00361082
0.031466	0.00396611
0.0265273	0.00338167
0.0286392	0.00363295
0.0269868	0.00384489
0.0262322	0.00372019
0.0259156	0.00323019
0.0244402	0.00382334
0.0238023	0.00520965
0.0256543	0.00635746
0.0216912	0.0102568
0.0237699	0.00894962
0.0314858	0.00618566
0.0254417	0.0113256
0.0204242	0.0186235
0.0212173	0.0185948
0.0218909	0.0159407
0.0258356	0.00465092
0.0319407	0.00605775
0.0308058	0.00515648
0.0325782	0.00473289
0.0263975	0.00475704
0.0251728	0.00412464
0.0228924	0.00685947
0.0203509	0.00444108
0.0306925	0.0044516
0.0270888	0.00477586
0.019432	0.00440483
0.0255457	0.00406571
0.0224803	0.00359953
0.0199246	0.00419992
0.0336778	0.00408678
0.0211494	0.00378642
0.0280366	0.00400338
0.0234978	0.00458178
0.0177793	0.00368273
0.0212781	0.00460925
0.0258293	0.00370012
0.026158	0.00386457
0.0257833	0.00523646
0.0272649	0.00368834
0.0278277	0.00882818
0.0255237	0.00434844
0.0163593	0.014375
0.0193893	0.0165883
0.0346438	0.00370322
0.0191329	0.0192265
0.0258199	0.0219245
0.038032	0.00608701
0.0224873	0.0238142
0.0571197	0.00580665
0.0472023	0.0276718
0.0269083	0.0384569
0.035936	0.00389255
0.0409292	0.0265044
0.0408381	0.0221823
0.023303	0.00474824
0.0594661	0.0110764
0.0426919	0.00384727
0.0383868	0.00934423
0.0521038	0.0044198
0.0483881	0.00518886
0.0238581	0.00664594
0.0476198	0.00395963
0.0248623	0.014175
0.0314926	0.00521837
0.0291506	0.0255503
0.0269758	0.00424982
0.0362601	0.0370751
0.0318442	0.0048259
0.0222648	0.0393188
0.0336316	0.0248079
0.0197169	0.00896287
0.0284733	0.0180471
0.025261	0.00527221
0.0190012	0.0128502
0.0236568	0.00658844
0.0218443	0.00813142
0.0217074	0.00665898
0.0193916	0.00689425
0.0219774	0.00800188
0.02057	0.00437663
0.017811	0.00665424
0.0225206	0.00720866
0.02403	0.00810673
0.0229334	0.00451314
0.0163828	0.00491168
0.0204657	0.006194
0.0257311	0.00547207
0.027607	0.00530261
0.0207491	0.00438793
0.0424773	0.00457985
0.0199164	0.00470705
0.0631049	0.00446521
0.0448642	0.00520266
0.0429665	0.00425727
0.0585848	0.00443909
0.0378396	0.00489466
0.0333626	0.00457448
0.0391645	0.00442704
0.0234436	0.00441222
0.0339592	0.00422092
0.032	0.00422059
0.027492	0.0047582
0.0399976	0.00423246
0.0331289	0.00422039
0.025816	0.00399435
0.0515156	0.00398268
0.050749	0.00403156
0.0287881	0.00397619
0.0524172	0.00405096
0.0436309	0.00400166
0.0540501	0.0038909
0.0339705	0.00390961
0.0457296	0.00375878
0.0517096	0.00371686
0.0670359	0.00366346
0.0368772	0.00389968
0.0581465	0.0037241
0.0476398	0.00368502
0.0552099	0.00364516
0.036072	0.00357748
0.0562495	0.00362369
0.0430456	0.0036541
0.0352392	0.00363586
0.044184	0.00343585
0.0338177	0.00338716
0.0340402	0.00345821
0.0423664	0.00340489
0.0396926	0.00334401
0.0270934	0.00344531
0.0382579	0.00335711
0.0293323	0.00328245
0.0302225	0.00328816
0.0301655	0.00320914
0.0275292	0.00324823
0.0286484	0.00339165
0.0244166	0.00320578
0.0302325	0.00329986
0.0223016	0.00321475
0.0263831	0.00312172
0.0217988	0.00307685
0.0286096	0.00313778
0.0195349	0.00322898
0.0244742	0.00316838
0.0182737	0.00315234
0.0256547	0.00311053
0.0229252	0.0032075
0.0200868	0.00318515
0.0229709	0.00375718
0.0329236	0.00319243
0.0166262	0.00373121
0.0338481	0.00311736
0.0190785	0.00297797
0.026314	0.00338251
0.0271698	0.00297726
0.0192375	0.00343653
0.0219666	0.00294232
0.0191331	0.00347137
0.0168964	0.00341871
0.0179961	0.00311139
0.0174113	0.00346009
0.0159394	0.00335589
0.0171889	0.00304808
0.016047	0.0039362
0.0153469	0.00547418
0.0162671	0.00316504
0.0151929	0.00763966
0.0150451	0.005186
0.0150278	0.0150734
0.0137551	0.00441132
0.0141165	0.0268007
0.0149852	0.0080472
0.0169132	0.0178575
0.026828	0.011352
0.0200047	0.0046038
0.019493	0.00677295
0.0214689	0.0043546
0.0213196	0.00311624
0.0184885	0.00481574
0.0150669	0.00394272
0.0188552	0.00486
0.0182952	0.00443482
0.0234794	0.00379099
0.0448552	0.00377303
0.0396593	0.00383184
0.0236687	0.00351989
0.10453	0.00477218
0.0639535	0.00355785
0.0633678	0.0038678
0.0445416	0.00467375
0.057435	0.00312718
0.0557335	0.00324268
0.0750344	0.00471822
0.0331603	0.00341029
0.0701003	0.00365498
0.0669006	0.00346198
0.0189327	0.00329341
0.0715492	0.0033906
0.0446553	0.00451313
0.0369542	0.00304969
0.0465505	0.00433946
0.0247595	0.00303032
0.0252928	0.00318989
0.0285243	0.00370071
0.0377441	0.00318656
0.0271417	0.00303131
0.0268485	0.00305349
0.0234871	0.00401743
0.0316266	0.00293552
0.0375237	0.00304971
0.0289913	0.00424382
0.0428237	0.00307252
0.0210899	0.00329858
0.06024	0.00359172
0.043737	0.00312027
0.0268175	0.00305728
0.0334736	0.00369381
0.0284099	0.00305917
0.0313774	0.00291361
0.0376141	0.00503729
0.0208587	0.00288944
0.036623	0.00699634
0.0248746	0.00277396
0.0302744	0.00978115
0.0346024	0.00683095
0.0228381	0.00957927
0.0314072	0.011726
0.0228703	0.00417831
0.0285296	0.0047615
0.0266059	0.00625557
0.0219901	0.00473481
0.0269154	0.0142282
0.02053	0.024621
0.0249095	0.0232198
0.0209534	0.00564775
0.0267067	0.0233488
0.0223829	0.00590825
0.0240737	0.014103
0.019994	0.0129376
0.0264887	0.0034727
